
DisplayName "San Ilia Castle Barracks"



EVENT   1
 PAGE   1
  281(0)
  250(bytes(0x04,0x08,0x6f,0x3a,0x0c,0x52,0x50,0x47,0x3a,0x3a,0x53,0x45,0x08,0x3a,0x0a,0x40,0x6e,0x61,0x6d,0x65,0x49,0x22,0x09,0x4d,0x6f,0x76,0x65,0x06,0x3a,0x06,0x45,0x54,0x3a,0x0b,0x40,0x70,0x69,0x74,0x63,0x68,0x69,0x69,0x3a,0x0c,0x40,0x76,0x6f,0x6c,0x75,0x6d,0x65,0x69,0x55))
  TeleportPlayer(0,355,3,35,0,0)
  0()



EVENT   2
 PAGE   1
  281(0)
  250(bytes(0x04,0x08,0x6f,0x3a,0x0c,0x52,0x50,0x47,0x3a,0x3a,0x53,0x45,0x08,0x3a,0x0a,0x40,0x6e,0x61,0x6d,0x65,0x49,0x22,0x09,0x4d,0x6f,0x76,0x65,0x06,0x3a,0x06,0x45,0x54,0x3a,0x0b,0x40,0x70,0x69,0x74,0x63,0x68,0x69,0x69,0x3a,0x0c,0x40,0x76,0x6f,0x6c,0x75,0x6d,0x65,0x69,0x55))
  TeleportPlayer(0,355,3,35,0,0)
  0()



EVENT   3
 PAGE   1
  281(0)
  250(bytes(0x04,0x08,0x6f,0x3a,0x0c,0x52,0x50,0x47,0x3a,0x3a,0x53,0x45,0x08,0x3a,0x0a,0x40,0x6e,0x61,0x6d,0x65,0x49,0x22,0x09,0x4d,0x6f,0x76,0x65,0x06,0x3a,0x06,0x45,0x54,0x3a,0x0b,0x40,0x70,0x69,0x74,0x63,0x68,0x69,0x69,0x3a,0x0c,0x40,0x76,0x6f,0x6c,0x75,0x6d,0x65,0x69,0x55))
  TeleportPlayer(0,355,3,35,0,0)
  0()



EVENT   4
 PAGE   1
  281(0)
  250(bytes(0x04,0x08,0x6f,0x3a,0x0c,0x52,0x50,0x47,0x3a,0x3a,0x53,0x45,0x08,0x3a,0x0a,0x40,0x6e,0x61,0x6d,0x65,0x49,0x22,0x09,0x4d,0x6f,0x76,0x65,0x06,0x3a,0x06,0x45,0x54,0x3a,0x0b,0x40,0x70,0x69,0x74,0x63,0x68,0x69,0x69,0x3a,0x0c,0x40,0x76,0x6f,0x6c,0x75,0x6d,0x65,0x69,0x55))
  TeleportPlayer(0,355,3,35,0,0)
  0()



EVENT   5
 PAGE   1
  281(0)
  250(bytes(0x04,0x08,0x6f,0x3a,0x0c,0x52,0x50,0x47,0x3a,0x3a,0x53,0x45,0x08,0x3a,0x0a,0x40,0x6e,0x61,0x6d,0x65,0x49,0x22,0x09,0x4d,0x6f,0x76,0x65,0x06,0x3a,0x06,0x45,0x54,0x3a,0x0b,0x40,0x70,0x69,0x74,0x63,0x68,0x69,0x69,0x3a,0x0c,0x40,0x76,0x6f,0x6c,0x75,0x6d,0x65,0x69,0x55))
  TeleportPlayer(0,355,3,35,0,0)
  0()



EVENT   6
 PAGE   1
  281(0)
  250(bytes(0x04,0x08,0x6f,0x3a,0x0c,0x52,0x50,0x47,0x3a,0x3a,0x53,0x45,0x08,0x3a,0x0a,0x40,0x6e,0x61,0x6d,0x65,0x49,0x22,0x09,0x4d,0x6f,0x76,0x65,0x06,0x3a,0x06,0x45,0x54,0x3a,0x0b,0x40,0x70,0x69,0x74,0x63,0x68,0x69,0x69,0x3a,0x0c,0x40,0x76,0x6f,0x6c,0x75,0x6d,0x65,0x69,0x55))
  TeleportPlayer(0,355,3,35,0,0)
  0()



EVENT   7
 PAGE   1
  281(0)
  250(bytes(0x04,0x08,0x6f,0x3a,0x0c,0x52,0x50,0x47,0x3a,0x3a,0x53,0x45,0x08,0x3a,0x0a,0x40,0x6e,0x61,0x6d,0x65,0x49,0x22,0x09,0x4d,0x6f,0x76,0x65,0x06,0x3a,0x06,0x45,0x54,0x3a,0x0b,0x40,0x70,0x69,0x74,0x63,0x68,0x69,0x69,0x3a,0x0c,0x40,0x76,0x6f,0x6c,0x75,0x6d,0x65,0x69,0x55))
  TeleportPlayer(0,355,3,35,0,0)
  0()



EVENT   8
 PAGE   1
  ShowMessageFace("",0,0,2,1)
  ShowMessage("\\n<Guard A>Ahhhh. That's some good coffee.")
  ShowMessageFace("",0,0,2,2)
  ShowMessage("\\n<Guard B>It's important to stay awake for this work. When on duty, work hard. When on break, rest hard.")
  ShowMessageFace("",0,0,2,3)
  ShowMessage("\\n<Guard B>So by no means are we slacking off right now.")
  0()



EVENT   9
 PAGE   1
  ShowMessageFace("",0,0,2,1)
  ShowMessage("\\n<Guard A>Ahhhh. That's some good coffee.")
  ShowMessageFace("",0,0,2,2)
  ShowMessage("\\n<Guard B>It's important to stay awake for this work. When on duty, work hard. When on break, rest hard.")
  ShowMessageFace("",0,0,2,3)
  ShowMessage("\\n<Guard B>So by no means are we slacking off right now.")
  0()



EVENT   10
 PAGE   1
  If(1,1001,0,25,2)
   ShowMessageFace("",0,0,2,1)
   ShowMessage("\\n<Guard>San Ilia's expeditionary forces are fighting along Grand Noah's border now. I wonder if my best friend is all right...")
   EndEventProcessing()
   0()
  EndIf()
  If(1,1001,0,26,1)
   ShowMessageFace("",0,0,2,2)
   ShowMessage("\\n<Guard>遠征先から戻ってきたと思えば、領内警備の日々……")
   ShowMessage("心が安まる暇はないな。")
   EndEventProcessing()
   0()
  EndIf()
  0()



EVENT   11
 PAGE   1
  If(1,1001,0,25,2)
   ShowMessageFace("",0,0,2,1)
   ShowMessage("\\n<Knight>I'm scheduled to join the next expeditionary force so I need to train my skills while I can.")
   355("actor_label_jump")
   EndEventProcessing()
   DefineLabel("75")
   ShowMessageFace("hituzi_fc1",3,0,2,2)
   ShowMessage("\\n<Mary>Better drink plenty of liquor.")
   EndEventProcessing()
   DefineLabel("100")
   ShowMessageFace("rahure_fc1",1,0,2,3)
   ShowMessage("\\n<Fleesia>Well then, as a gift I shall grant you a scent that will rouse your fighting spirit.")
   ShowMessageFace("",0,0,2,4)
   ShowMessage("\\n<Knight>I-it stinks! GUAAAaaaaahh!")
   EndEventProcessing()
   0()
  EndIf()
  If(1,1001,0,26,1)
   ShowMessageFace("",0,0,2,5)
   ShowMessage("\\n<騎士>当分は休暇など無しだな……")
   ShowMessage("とは言え今は五百年前以来の危機、それも致し方あるまい。")
   EndEventProcessing()
   0()
  EndIf()
  0()



EVENT   12
 PAGE   1
  If(1,1001,0,25,2)
   ShowMessageFace("",0,0,2,1)
   ShowMessage("\\n<Guard>Grangold's tyranny cannot be forgiven! ")
   355("actor_label_jump")
   EndEventProcessing()
   DefineLabel("71")
   ShowMessageFace("okami_fc1",0,0,2,2)
   ShowMessage("\\n<Amara>Smash iiit!")
   EndEventProcessing()
   DefineLabel("74")
   ShowMessageFace("usagi_fc1",2,0,2,3)
   ShowMessage("\\n<Barbun>If he gets all gung-ho to the battlefield, he'll quickly get worn out. What a reckless kid.")
   EndEventProcessing()
   0()
  EndIf()
  If(1,1001,0,26,1)
   ShowMessageFace("",0,0,2,4)
   ShowMessage("\\n<Guard>魔王軍の侵略、許してはおけない！")
   ShowMessage("悪しき侵攻を食い止める盾とならん！　オリャー！")
   EndEventProcessing()
   0()
  EndIf()
  0()



EVENT   13
 PAGE   1
  If(1,1001,0,25,2)
   ShowMessageFace("",0,0,2,1)
   ShowMessage("\\n<Guard>I shouldn't say it out loud, but... I don't want to be in the expeditionary forces.")
   ShowMessageFace("",0,0,2,2)
   ShowMessage("\\n<Guard>Grangold has a massive army of mechanical dolls and Ant Girls! That's way too scary! I don't want to fight them!")
   355("actor_label_jump")
   EndEventProcessing()
   0()
  EndIf()
  If(1,1001,0,26,1)
   ShowMessageFace("",0,0,2,3)
   ShowMessage("\\n<Guard>大きな声では言えないけど……")
   ShowMessage("魔王軍となんて戦いたくないのだよ。")
   ShowMessageFace("",0,0,2,4)
   ShowMessage("\\n<Guard>上級の妖魔相手に、俺なんかが勝てるものか。")
   ShowMessage("命がいくつあっても足りないぜ……")
   355("actor_label_jump")
   EndEventProcessing()
   0()
  EndIf()
  DefineLabel("75")
  ShowMessageFace("hituzi_fc1",3,0,2,5)
  ShowMessage("\\n<Mary>At times like these, you should drink!")
  EndEventProcessing()
  DefineLabel("114")
  ShowMessageFace("wakame_fc1",1,0,2,6)
  ShowMessage("\\n<Wakame>That's all right. Scary things are scary... *sway* *sway*")
  EndEventProcessing()
  DefineLabel("143")
  ShowMessageFace("eva_fc1",2,0,2,7)
  ShowMessage("\\n<Eva>If you don't want to go, why don't you skip out on it?")
  EndEventProcessing()
  0()



EVENT   14
 PAGE   1
  ShowMessageFace("",0,0,2,1)
  ShowMessage("\\n<Knight>Haa! Rah!")
  ShowMessageFace("",0,0,2,2)
  ShowMessage("\\n<Knight>Stamina is important on the battlefield. If you spend your energy showing off with flashy moves, you'll get struck down the moment you tire.")
  355("actor_label_jump")
  EndEventProcessing()
  DefineLabel("103")
  ShowMessageFace("kamuro_fc1",0,0,2,3)
  ShowMessage("\\n<Kamuro>I see. I shall have to remember that.")
  EndEventProcessing()
  DefineLabel("141")
  ShowMessageFace("mino_fc1",0,0,2,4)
  ShowMessage("\\n<Mina>In other words, eating hearty beef is very important!")
  EndEventProcessing()
  0()



EVENT   15
 PAGE   1
  If(1,1001,0,25,2)
   ShowMessageFace("",0,0,2,1)
   ShowMessage("\\n<Guard>As I thought, I need to look cool in armor if I don't want people to look down on me.")
   ShowMessageFace("",0,0,2,2)
   ShowMessage("\\n<Guard>But if I look too cool, the enemy soldiers will target me... Hmmm, this is a real dilemma.")
   355("actor_label_jump")
   EndEventProcessing()
   DefineLabel("113")
   ShowMessageFace("lamia_fc1",0,0,2,3)
   ShowMessage("\\n<Anastasia>My, choosing armor sure is tough. To be unable to be as fashionable as you desire... I pity him.")
   EndEventProcessing()
   DefineLabel("156")
   ShowMessageFace("d_fighter_fc1",0,0,2,4)
   ShowMessage("\\n<Regina>It's better to be targeted than to be stared at...")
   ShowMessageFace("",0,0,2,5)
   ShowMessage("\\n<Guard>Wah! What's with that outfit?!")
   ShowMessageFace("d_fighter_fc1",0,0,2,6)
   ShowMessage("\\n<Regina>......")
   EndEventProcessing()
   EndEventProcessing()
   0()
  EndIf()
  If(1,1001,0,26,1)
   ShowMessageFace("",0,0,2,7)
   ShowMessage("\\n<Guard>魔王軍と戦うんだ、勇者っぽい鎧がいいよな。")
   ShowMessage("うむむ、迷うぜ……")
   EndEventProcessing()
   0()
  EndIf()
  0()



EVENT   16
 PAGE   1
  ShowMessageFace("",0,0,2,1)
  ShowMessage("\\n<Youth>This week is my first vacation in a while. I should go back home and take it easy.")
  355("actor_label_jump")
  EndEventProcessing()
  DefineLabel("59")
  ShowMessageFace("mdg_fc1",0,0,2,2)
  ShowMessage("\\n<Ragora>I'm always on vacation.")
  EndEventProcessing()
  DefineLabel("109")
  ShowMessageFace("kani_fc1",0,0,2,3)
  ShowMessage("\\n<Soapy>Make sure to thoroughly wash yourself.")
  EndEventProcessing()
  0()



EVENT   17
 PAGE   1
  If(1,1001,0,19,2)
   ShowMessageFace("",0,0,2,1)
   ShowMessage("\\n<Guard>It's so annoying that the cave tunnel to Port Marle has been sealed. Hey, do you know about the cave north of Luddite Village?")
   ShowMessageFace("",0,0,2,2)
   ShowMessage("\\n<Guard>The cave connects to a port city north of here named Port Marle, but it's been blocked due to the war.")
   ShowMessageFace("",0,0,2,3)
   ShowMessage("\\n<Guard>It's now impossible to get to Port Marle by land. I wonder when they'll lift the blockade...")
   355("actor_label_jump")
   EndEventProcessing()
   DefineLabel("62")
   ShowMessageFace("gob_fc1",3,0,2,4)
   ShowMessage("\\n<Gob>Even I can't run on top of the sea.")
   EndEventProcessing()
   0()
  EndIf()
  If(1,1001,0,20,1)
   If(1,1001,0,25,2)
    ShowMessageFace("",0,0,2,5)
    ShowMessage("\\n<Guard>マールポートへの洞窟ですが、通行止めが解除されたようですね。")
    ShowMessage("しかし海上封鎖が厳しく、グランドノアへの客船は出ていないとか……")
    EndEventProcessing()
    0()
   EndIf()
   0()
  EndIf()
  If(1,1001,0,26,1)
   ShowMessageFace("",0,0,2,6)
   ShowMessage("\\n<Guard>グランゴルド王まで、魔王の手先に操られていたとは……")
   ShowMessage("各国の王を洗脳するとは、魔王おそるべし……")
   EndEventProcessing()
   0()
  EndIf()
  0()



EVENT   18
 PAGE   1
  If(1,1001,0,25,2)
   ShowMessageFace("",0,0,2,1)
   ShowMessage("\\n<Guard>My friend was killed in the war. I've volunteered to join the next expeditionary force to get revenge!")
   355("actor_label_jump")
   EndEventProcessing()
   DefineLabel("93")
   ShowMessageFace("liot_fc1",0,0,2,2)
   ShowMessage("\\n<Riot>Fight to the bitter end for your friend's sake.")
   EndEventProcessing()
   DefineLabel("109")
   ShowMessageFace("kani_fc1",0,0,2,3)
   ShowMessage("\\n<Soapy>Hey, cool your head or you'll die too. How about I give you a nice, relaxing wash?")
   EndEventProcessing()
   0()
  EndIf()
  If(1,1001,0,26,1)
   ShowMessageFace("",0,0,2,4)
   ShowMessage("\\n<Guard>グランゴルドとの戦争は終わったけど……")
   ShowMessage("それでも、死んだ戦友のために戦い続けるよ。")
   EndEventProcessing()
   0()
  EndIf()
  0()



EVENT   19
 PAGE   1
  ShowMessageFace("",0,0,2,1)
  ShowMessage("\\n<Nun>Men training, covered in sweat... Wonderful... Haa, haa...")
  355("actor_label_jump")
  EndEventProcessing()
  DefineLabel("82")
  ShowMessageFace("suzume_fc1",3,0,2,2)
  ShowMessage("\\n<Chirp>I don't like the smell of sweat...")
  EndEventProcessing()
  DefineLabel("107")
  ShowMessageFace("namako_fc1",0,0,2,3)
  ShowMessage("\\n<Yume>I want to slowly squeeze all that sweat out of them...")
  EndEventProcessing()
  DefineLabel("108")
  ShowMessageFace("kai_fc1",0,0,2,4)
  ShowMessage("\\n<Shelly>Yes, truly wonderful. Could any of them become your husband?")
  EndEventProcessing()
  DefineLabel("120")
  ShowMessageFace("page257_fc1",0,0,2,5)
  ShowMessage("\\n<Yoko>This isn't my thing at all. Does there happen to be any intellectual gentlemen around?")
  EndEventProcessing()
  0()

EVENT   20
 PAGE   1
  ShowMessageFace("",0,0,2,1)
  ShowMessage("\\n<Guard>Zzz, ZzZz...")
  ShowMessageFace("",0,0,2,2)
  ShowMessage("He's fast asleep. He seems to have fallen out of his bed.")
  355("actor_label_jump")
  EndEventProcessing()
  DefineLabel("56")
  ShowMessageFace("inp_fc1",0,0,2,3)
  ShowMessage("\\n<Rami>Sometimes I fall out of bed from my boobs' weight...")
  EndEventProcessing()
  DefineLabel("99")
  ShowMessageFace("namazu_fc1",0,0,2,4)
  ShowMessage("\\n<Gigi>What a terrible place to sleep! Wake up, or you're gonna catch a cold.")
  EndEventProcessing()
  0()



EVENT   21
 PAGE   1
  ShowMessageFace("",0,0,2,1)
  ShowMessage("\\n<Guard>WAAah!")
  355("actor_label_jump")
  EndEventProcessing()
  DefineLabel("120")
  ShowMessageFace("page257_fc1",0,0,2,2)
  ShowMessage("\\n<Yoko>...♪")
  EndEventProcessing()
  0()



EVENT   22
 PAGE   1
  ShowMessageFace("",0,0,2,1)
  ShowMessage("\\n<Guard>Our reserves are really getting depleted. To be honest, San Ilia doesn't have that strong of a military.")
  ShowMessageFace("",0,0,2,2)
  ShowMessage("\\n<Guard>Our elite knights are extremely talented, but, compared to other countries' forces, there are very few of them.")
  0()



EVENT   23
 PAGE   1
  If(1,1001,0,25,2)
   ShowMessageFace("",0,0,2,1)
   ShowMessage("\\n<Guard>I need to tell Maria my real feelings before I get shipped out to the war. With a little luck, we might even get engaged before I leave.")
   ShowMessageFace("",0,0,2,2)
   ShowMessage("\\n<Guard>...Wait, that's a death flag, isn't it?!")
   355("actor_label_jump")
   EndEventProcessing()
   DefineLabel("83")
   ShowMessageFace("hapy_a_fc1",0,0,2,3)
   ShowMessage("\\n<Reina>But you should still tell her your feelings, riiight? ♪")
   EndEventProcessing()
   DefineLabel("122")
   ShowMessageFace("sisterlamia_fc1",0,0,2,4)
   ShowMessage("\\n<Sofia>Calm yourself. These days, death flags that blatant are, in fact, survival flags.")
   EndEventProcessing()
   DefineLabel("152")
   ShowMessageFace("lamias_fc2",4,0,2,5)
   ShowMessage("\\n<Nefertiti Lamias>Hurry up and do it! And tell us what happened!")
   EndEventProcessing()
   0()
  EndIf()
  If(1,1001,0,26,1)
   ShowMessageFace("",0,0,2,6)
   ShowMessage("\\n<Guard>マリアさんにプロポーズしましたが、玉砕しました。")
   ShowMessage("そもそも恋人でも何でもなかったので、それも当然ですね。")
   ShowMessageFace("",0,0,2,7)
   ShowMessage("\\n<Guard>なんと、魔王が人類を滅ぼそうとしているのですか？")
   ShowMessage("それはいい、なるようになれ。")
   EndEventProcessing()
   0()
  EndIf()
  0()



EVENT   24
 PAGE   1
  If(1,1001,0,25,2)
   ShowMessageFace("",0,0,2,1)
   ShowMessage("\\n<Knight>I wish this war would end. Why did Grangold suddenly try to expand?")
   ShowMessageFace("",0,0,2,2)
   ShowMessage("\\n<Knight>They used to have such a good relationship with Grand Noah. This must be because that Magic King took over.")
   355("actor_label_jump")
   EndEventProcessing()
   DefineLabel("103")
   ShowMessageFace("kamuro_fc1",0,0,2,3)
   ShowMessage("\\n<Kamuro>So even humans fight wars against one another. I thought it was just monsters who did that...")
   EndEventProcessing()
   0()
  EndIf()
  If(1,1001,0,26,1)
   ShowMessageFace("",0,0,2,4)
   ShowMessage("\\n<騎士>グランゴルドを打ち破ったと思えば、次は魔王か……")
   ShowMessage("噂の勇者ルカにがんばってもらうしかないな。")
   EndEventProcessing()
   0()
  EndIf()
  0()



EVENT   25
 PAGE   1
  ShowMessageFace("",0,0,2,1)
  ShowMessage("\\n<Dog>Woof! Woof!")
  355("actor_label_jump")
  EndEventProcessing()
  DefineLabel("60")
  ShowMessageFace("dog_fc1",4,0,2,2)
  ShowMessage("\\n<Pochi>Woofie. ♪")
  EndEventProcessing()
  DefineLabel("525")
  ShowMessageFace("sonia_fc1",0,0,2,3)
  ShowMessage("\\n<Sonya>Looks like this dog is being kept in the barracks. Is it their mascot?")
  EndEventProcessing()
  0()




EVENT   26
 PAGE   1
  250(bytes(0x04,0x08,0x6f,0x3a,0x0c,0x52,0x50,0x47,0x3a,0x3a,0x53,0x45,0x08,0x3a,0x0a,0x40,0x6e,0x61,0x6d,0x65,0x49,0x22,0x0a,0x49,0x74,0x65,0x6d,0x31,0x06,0x3a,0x06,0x45,0x54,0x3a,0x0b,0x40,0x70,0x69,0x74,0x63,0x68,0x69,0x69,0x3a,0x0c,0x40,0x76,0x6f,0x6c,0x75,0x6d,0x65,0x69,0x55))
  ChangeSelfSwitch("A",0)
  ChangeInventory_Item(40,0,0,1)
  0()
 PAGE   2
  // condition: self-switch A is ON
  0()


