﻿
DisplayName "Haunted Manor Storehouse"



EVENT   1
 PAGE   1
  250(bytes(0x04,0x08,0x6f,0x3a,0x0c,0x52,0x50,0x47,0x3a,0x3a,0x53,0x45,0x08,0x3a,0x0a,0x40,0x6e,0x61,0x6d,0x65,0x49,0x22,0x09,0x4d,0x6f,0x76,0x65,0x06,0x3a,0x06,0x45,0x54,0x3a,0x0b,0x40,0x70,0x69,0x74,0x63,0x68,0x69,0x69,0x3a,0x0c,0x40,0x76,0x6f,0x6c,0x75,0x6d,0x65,0x69,0x55))
  TeleportPlayer(0,346,2,16,0,0)
  0()



EVENT   2
 PAGE   1
  ShowMessageFace("zonbe_fc3",0,0,2,1)
  ShowMessage("\\n<Zombie Girl>King of the zombies...")
  ShowMessageFace("zonbe_fc3",0,0,2,2)
  ShowMessage("\\n<Zombie Girl>Thrilleerr...")
  ShowMessageFace("zonbe_fc3",0,0,2,3)
  ShowMessage("\\n<Zombie Girl>Thriller niighttt...")
  If(0,2080,0)
   ShowMessageFace("",0,0,2,4)
   ShowMessage("The zombies are dancing happily.")
   EndEventProcessing()
   0()
  EndIf()
  ShowMessageFace("",0,0,2,5)
  ShowMessage("The zombies are dancing happily. What do we do?")
  ShowChoices(strings("Fight them","Leave them be"),2)
  IfPlayerPicksChoice(0,null)
   If(0,6,0)
    ShowMessageFace("sonia_fc2",2,0,2,6)
    ShowMessage("\\n<Sonya>Is that really okay? I don't think the ones dancing here are causing any trouble.")
    0()
   EndIf()
   ShowChoices(strings("Fight them","Leave them be"),2)
   IfPlayerPicksChoice(0,null)
    Battle(0,193,false,false)
    ChangeSwitch(2085,2085,0)
    ChangeSwitch(2080,2080,0)
    ShowMessageFace("zonbe_fc3",0,0,2,7)
    ShowMessage("\\n<Zombie Girl>......")
    ShowMessageFace("",0,0,2,8)
    ShowMessage("Looking lonely, the zombies went back to their coffins.")
    EndEventProcessing()
    0()
   IfPlayerPicksChoice(1,null)
    ChangeSwitch(2080,2080,0)
    ShowMessageFace("ruka_fc1",0,0,2,9)
    ShowMessage("\\n<Luka>We don't have to defeat them. They aren't hurting anyone.")
    EndEventProcessing()
    0()
   404()
   0()
  IfPlayerPicksChoice(1,null)
   ChangeSwitch(2080,2080,0)
   ShowMessageFace("ruka_fc1",0,0,2,10)
   ShowMessage("\\n<Luka>We don't have to defeat them. They aren't hurting anyone.")
   EndEventProcessing()
   0()
  404()
  0()
 PAGE   2
  // condition: switch 2085 is ON
  0()




EVENT   3
 PAGE   1
  250(bytes(0x04,0x08,0x6f,0x3a,0x0c,0x52,0x50,0x47,0x3a,0x3a,0x53,0x45,0x08,0x3a,0x0a,0x40,0x6e,0x61,0x6d,0x65,0x49,0x22,0x0a,0x43,0x68,0x65,0x73,0x74,0x06,0x3a,0x06,0x45,0x54,0x3a,0x0b,0x40,0x70,0x69,0x74,0x63,0x68,0x69,0x69,0x3a,0x0c,0x40,0x76,0x6f,0x6c,0x75,0x6d,0x65,0x69,0x55))
  205(0,bytes(0x04,0x08,0x6f,0x3a,0x13,0x52,0x50,0x47,0x3a,0x3a,0x4d,0x6f,0x76,0x65,0x52,0x6f,0x75,0x74,0x65,0x09,0x3a,0x0c,0x40,0x72,0x65,0x70,0x65,0x61,0x74,0x46,0x3a,0x0f,0x40,0x73,0x6b,0x69,0x70,0x70,0x61,0x62,0x6c,0x65,0x46,0x3a,0x0a,0x40,0x77,0x61,0x69,0x74,0x54,0x3a,0x0a,0x40,0x6c,0x69,0x73,0x74,0x5b,0x0b,0x6f,0x3a,0x15,0x52,0x50,0x47,0x3a,0x3a,0x4d,0x6f,0x76,0x65,0x43,0x6f,0x6d,0x6d,0x61,0x6e,0x64,0x07,0x3a,0x0a,0x40,0x63,0x6f,0x64,0x65,0x69,0x29,0x3a,0x10,0x40,0x70,0x61,0x72,0x61,0x6d,0x65,0x74,0x65,0x72,0x73,0x5b,0x00,0x6f,0x3b,0x0a,0x07,0x3b,0x0b,0x69,0x16,0x3b,0x0c,0x5b,0x00,0x6f,0x3b,0x0a,0x07,0x3b,0x0b,0x69,0x14,0x3b,0x0c,0x5b,0x06,0x69,0x08,0x6f,0x3b,0x0a,0x07,0x3b,0x0b,0x69,0x17,0x3b,0x0c,0x5b,0x00,0x6f,0x3b,0x0a,0x07,0x3b,0x0b,0x69,0x14,0x3b,0x0c,0x5b,0x06,0x69,0x08,0x6f,0x3b,0x0a,0x07,0x3b,0x0b,0x69,0x00,0x3b,0x0c,0x5b,0x00))
  ChangeSelfSwitch("A",0)
  ChangeInventoryWeapon(213,0,0,1)
  0()
 PAGE   2
  // condition: self-switch A is ON
  0()



EVENT   4
 PAGE   1
  ChangeSelfSwitch("A",0)
  ShowMessageFace("ruka_fc1",0,0,2,1)
  ShowMessage("\\n<Luka>...What?")
  If(0,6,0)
   ShowMessageFace("sonia_fc2",2,0,2,2)
   ShowMessage("\\n<Sonya>They're dancing.")
   0()
  EndIf()
  EndEventProcessing()
  0()
 PAGE   2
  // condition: self-switch A is ON
  0()

EVENT   6
 PAGE   1
  ShowMessageFace("",0,0,2,1)
  ShowMessage("\\n<Zombie Girl>Aaa...uuu...")
  0()
 PAGE   2
  // condition: switch 2085 is ON
  0()



EVENT   7
 PAGE   1
  ShowMessageFace("",0,0,2,1)
  ShowMessage("\\n<Zombie Girl>Aaauu...")
  0()
 PAGE   2
  // condition: switch 2085 is ON
  0()



EVENT   8
 PAGE   1
  ShowMessageFace("",0,0,2,1)
  ShowMessage("\\n<Zombie Girl>OOooo...")
  0()
 PAGE   2
  // condition: switch 2085 is ON
  0()



EVENT   9
 PAGE   1
  ShowMessageFace("",0,0,2,1)
  ShowMessage("\\n<Zombie Girl>Thrillleerr...")
  0()
 PAGE   2
  // condition: switch 2085 is ON
  0()



EVENT   10
 PAGE   1
  ShowMessageFace("",0,0,2,1)
  ShowMessage("\\n<Zombie Girl>Ohh yeaa...")
  0()
 PAGE   2
  // condition: switch 2085 is ON
  0()


