﻿
DisplayName "Succubus Village"



EVENT   1
 PAGE   1
  0()



EVENT   2
 PAGE   1
  0()



EVENT   3
 PAGE   1
  0()



EVENT   4
 PAGE   1
  0()



EVENT   5
 PAGE   1
  0()



EVENT   6
 PAGE   1
  0()



EVENT   7
 PAGE   1
  0()



EVENT   8
 PAGE   1
  0()



EVENT   9
 PAGE   1
  0()



EVENT   10
 PAGE   1
  0()



EVENT   11
 PAGE   1
  0()



EVENT   12
 PAGE   1
  0()



EVENT   13
 PAGE   1
  0()



EVENT   14
 PAGE   1
  0()



EVENT   15
 PAGE   1
  0()



EVENT   16
 PAGE   1
  0()



EVENT   17
 PAGE   1
  0()



EVENT   18
 PAGE   1
  If(1,1069,0,2,2)
   ShowMessageFace("",0,0,2,1)
   ShowMessage("妖魔を警戒し、固く閉ざされている……")
   EndEventProcessing()
   0()
  EndIf()
  If(1,1069,0,3,1)
   250(bytes(0x04,0x08,0x6f,0x3a,0x0c,0x52,0x50,0x47,0x3a,0x3a,0x53,0x45,0x08,0x3a,0x0a,0x40,0x6e,0x61,0x6d,0x65,0x49,0x22,0x0a,0x4f,0x70,0x65,0x6e,0x31,0x06,0x3a,0x06,0x45,0x54,0x3a,0x0b,0x40,0x70,0x69,0x74,0x63,0x68,0x69,0x69,0x3a,0x0c,0x40,0x76,0x6f,0x6c,0x75,0x6d,0x65,0x69,0x55))
   205(0,bytes(0x04,0x08,0x6f,0x3a,0x13,0x52,0x50,0x47,0x3a,0x3a,0x4d,0x6f,0x76,0x65,0x52,0x6f,0x75,0x74,0x65,0x09,0x3a,0x0c,0x40,0x72,0x65,0x70,0x65,0x61,0x74,0x46,0x3a,0x0f,0x40,0x73,0x6b,0x69,0x70,0x70,0x61,0x62,0x6c,0x65,0x46,0x3a,0x0a,0x40,0x77,0x61,0x69,0x74,0x54,0x3a,0x0a,0x40,0x6c,0x69,0x73,0x74,0x5b,0x0c,0x6f,0x3a,0x15,0x52,0x50,0x47,0x3a,0x3a,0x4d,0x6f,0x76,0x65,0x43,0x6f,0x6d,0x6d,0x61,0x6e,0x64,0x07,0x3a,0x0a,0x40,0x63,0x6f,0x64,0x65,0x69,0x16,0x3a,0x10,0x40,0x70,0x61,0x72,0x61,0x6d,0x65,0x74,0x65,0x72,0x73,0x5b,0x00,0x6f,0x3b,0x0a,0x07,0x3b,0x0b,0x69,0x14,0x3b,0x0c,0x5b,0x06,0x69,0x08,0x6f,0x3b,0x0a,0x07,0x3b,0x0b,0x69,0x17,0x3b,0x0c,0x5b,0x00,0x6f,0x3b,0x0a,0x07,0x3b,0x0b,0x69,0x14,0x3b,0x0c,0x5b,0x06,0x69,0x08,0x6f,0x3b,0x0a,0x07,0x3b,0x0b,0x69,0x18,0x3b,0x0c,0x5b,0x00,0x6f,0x3b,0x0a,0x07,0x3b,0x0b,0x69,0x2a,0x3b,0x0c,0x5b,0x00,0x6f,0x3b,0x0a,0x07,0x3b,0x0b,0x69,0x00,0x3b,0x0c,0x5b,0x00))
   205(-1,bytes(0x04,0x08,0x6f,0x3a,0x13,0x52,0x50,0x47,0x3a,0x3a,0x4d,0x6f,0x76,0x65,0x52,0x6f,0x75,0x74,0x65,0x09,0x3a,0x0c,0x40,0x72,0x65,0x70,0x65,0x61,0x74,0x46,0x3a,0x0f,0x40,0x73,0x6b,0x69,0x70,0x70,0x61,0x62,0x6c,0x65,0x54,0x3a,0x0a,0x40,0x77,0x61,0x69,0x74,0x54,0x3a,0x0a,0x40,0x6c,0x69,0x73,0x74,0x5b,0x07,0x6f,0x3a,0x15,0x52,0x50,0x47,0x3a,0x3a,0x4d,0x6f,0x76,0x65,0x43,0x6f,0x6d,0x6d,0x61,0x6e,0x64,0x07,0x3a,0x0a,0x40,0x63,0x6f,0x64,0x65,0x69,0x11,0x3a,0x10,0x40,0x70,0x61,0x72,0x61,0x6d,0x65,0x74,0x65,0x72,0x73,0x5b,0x00,0x6f,0x3b,0x0a,0x07,0x3b,0x0b,0x69,0x00,0x3b,0x0c,0x5b,0x00))
   250(bytes(0x04,0x08,0x6f,0x3a,0x0c,0x52,0x50,0x47,0x3a,0x3a,0x53,0x45,0x08,0x3a,0x0a,0x40,0x6e,0x61,0x6d,0x65,0x49,0x22,0x09,0x4d,0x6f,0x76,0x65,0x06,0x3a,0x06,0x45,0x54,0x3a,0x0b,0x40,0x70,0x69,0x74,0x63,0x68,0x69,0x69,0x3a,0x0c,0x40,0x76,0x6f,0x6c,0x75,0x6d,0x65,0x69,0x55))
   TeleportPlayer(0,515,5,15,0,0)
   EndEventProcessing()
   0()
  EndIf()
  0()



EVENT   19
 PAGE   1
  If(1,1069,0,2,2)
   ShowMessageFace("",0,0,2,1)
   ShowMessage("妖魔を警戒し、固く閉ざされている……")
   EndEventProcessing()
   0()
  EndIf()
  If(1,1069,0,3,1)
   250(bytes(0x04,0x08,0x6f,0x3a,0x0c,0x52,0x50,0x47,0x3a,0x3a,0x53,0x45,0x08,0x3a,0x0a,0x40,0x6e,0x61,0x6d,0x65,0x49,0x22,0x0a,0x4f,0x70,0x65,0x6e,0x31,0x06,0x3a,0x06,0x45,0x54,0x3a,0x0b,0x40,0x70,0x69,0x74,0x63,0x68,0x69,0x69,0x3a,0x0c,0x40,0x76,0x6f,0x6c,0x75,0x6d,0x65,0x69,0x55))
   205(0,bytes(0x04,0x08,0x6f,0x3a,0x13,0x52,0x50,0x47,0x3a,0x3a,0x4d,0x6f,0x76,0x65,0x52,0x6f,0x75,0x74,0x65,0x09,0x3a,0x0c,0x40,0x72,0x65,0x70,0x65,0x61,0x74,0x46,0x3a,0x0f,0x40,0x73,0x6b,0x69,0x70,0x70,0x61,0x62,0x6c,0x65,0x46,0x3a,0x0a,0x40,0x77,0x61,0x69,0x74,0x54,0x3a,0x0a,0x40,0x6c,0x69,0x73,0x74,0x5b,0x0c,0x6f,0x3a,0x15,0x52,0x50,0x47,0x3a,0x3a,0x4d,0x6f,0x76,0x65,0x43,0x6f,0x6d,0x6d,0x61,0x6e,0x64,0x07,0x3a,0x0a,0x40,0x63,0x6f,0x64,0x65,0x69,0x16,0x3a,0x10,0x40,0x70,0x61,0x72,0x61,0x6d,0x65,0x74,0x65,0x72,0x73,0x5b,0x00,0x6f,0x3b,0x0a,0x07,0x3b,0x0b,0x69,0x14,0x3b,0x0c,0x5b,0x06,0x69,0x08,0x6f,0x3b,0x0a,0x07,0x3b,0x0b,0x69,0x17,0x3b,0x0c,0x5b,0x00,0x6f,0x3b,0x0a,0x07,0x3b,0x0b,0x69,0x14,0x3b,0x0c,0x5b,0x06,0x69,0x08,0x6f,0x3b,0x0a,0x07,0x3b,0x0b,0x69,0x18,0x3b,0x0c,0x5b,0x00,0x6f,0x3b,0x0a,0x07,0x3b,0x0b,0x69,0x2a,0x3b,0x0c,0x5b,0x00,0x6f,0x3b,0x0a,0x07,0x3b,0x0b,0x69,0x00,0x3b,0x0c,0x5b,0x00))
   205(-1,bytes(0x04,0x08,0x6f,0x3a,0x13,0x52,0x50,0x47,0x3a,0x3a,0x4d,0x6f,0x76,0x65,0x52,0x6f,0x75,0x74,0x65,0x09,0x3a,0x0c,0x40,0x72,0x65,0x70,0x65,0x61,0x74,0x46,0x3a,0x0f,0x40,0x73,0x6b,0x69,0x70,0x70,0x61,0x62,0x6c,0x65,0x54,0x3a,0x0a,0x40,0x77,0x61,0x69,0x74,0x54,0x3a,0x0a,0x40,0x6c,0x69,0x73,0x74,0x5b,0x07,0x6f,0x3a,0x15,0x52,0x50,0x47,0x3a,0x3a,0x4d,0x6f,0x76,0x65,0x43,0x6f,0x6d,0x6d,0x61,0x6e,0x64,0x07,0x3a,0x0a,0x40,0x63,0x6f,0x64,0x65,0x69,0x11,0x3a,0x10,0x40,0x70,0x61,0x72,0x61,0x6d,0x65,0x74,0x65,0x72,0x73,0x5b,0x00,0x6f,0x3b,0x0a,0x07,0x3b,0x0b,0x69,0x00,0x3b,0x0c,0x5b,0x00))
   250(bytes(0x04,0x08,0x6f,0x3a,0x0c,0x52,0x50,0x47,0x3a,0x3a,0x53,0x45,0x08,0x3a,0x0a,0x40,0x6e,0x61,0x6d,0x65,0x49,0x22,0x09,0x4d,0x6f,0x76,0x65,0x06,0x3a,0x06,0x45,0x54,0x3a,0x0b,0x40,0x70,0x69,0x74,0x63,0x68,0x69,0x69,0x3a,0x0c,0x40,0x76,0x6f,0x6c,0x75,0x6d,0x65,0x69,0x55))
   TeleportPlayer(0,515,66,15,0,0)
   EndEventProcessing()
   0()
  EndIf()
  0()



EVENT   20
 PAGE   1
  If(1,1069,0,2,2)
   ShowMessageFace("",0,0,2,1)
   ShowMessage("妖魔を警戒し、固く閉ざされている……")
   EndEventProcessing()
   0()
  EndIf()
  If(1,1069,0,3,1)
   250(bytes(0x04,0x08,0x6f,0x3a,0x0c,0x52,0x50,0x47,0x3a,0x3a,0x53,0x45,0x08,0x3a,0x0a,0x40,0x6e,0x61,0x6d,0x65,0x49,0x22,0x0a,0x4f,0x70,0x65,0x6e,0x31,0x06,0x3a,0x06,0x45,0x54,0x3a,0x0b,0x40,0x70,0x69,0x74,0x63,0x68,0x69,0x69,0x3a,0x0c,0x40,0x76,0x6f,0x6c,0x75,0x6d,0x65,0x69,0x55))
   205(0,bytes(0x04,0x08,0x6f,0x3a,0x13,0x52,0x50,0x47,0x3a,0x3a,0x4d,0x6f,0x76,0x65,0x52,0x6f,0x75,0x74,0x65,0x09,0x3a,0x0c,0x40,0x72,0x65,0x70,0x65,0x61,0x74,0x46,0x3a,0x0f,0x40,0x73,0x6b,0x69,0x70,0x70,0x61,0x62,0x6c,0x65,0x46,0x3a,0x0a,0x40,0x77,0x61,0x69,0x74,0x54,0x3a,0x0a,0x40,0x6c,0x69,0x73,0x74,0x5b,0x0c,0x6f,0x3a,0x15,0x52,0x50,0x47,0x3a,0x3a,0x4d,0x6f,0x76,0x65,0x43,0x6f,0x6d,0x6d,0x61,0x6e,0x64,0x07,0x3a,0x0a,0x40,0x63,0x6f,0x64,0x65,0x69,0x16,0x3a,0x10,0x40,0x70,0x61,0x72,0x61,0x6d,0x65,0x74,0x65,0x72,0x73,0x5b,0x00,0x6f,0x3b,0x0a,0x07,0x3b,0x0b,0x69,0x14,0x3b,0x0c,0x5b,0x06,0x69,0x08,0x6f,0x3b,0x0a,0x07,0x3b,0x0b,0x69,0x17,0x3b,0x0c,0x5b,0x00,0x6f,0x3b,0x0a,0x07,0x3b,0x0b,0x69,0x14,0x3b,0x0c,0x5b,0x06,0x69,0x08,0x6f,0x3b,0x0a,0x07,0x3b,0x0b,0x69,0x18,0x3b,0x0c,0x5b,0x00,0x6f,0x3b,0x0a,0x07,0x3b,0x0b,0x69,0x2a,0x3b,0x0c,0x5b,0x00,0x6f,0x3b,0x0a,0x07,0x3b,0x0b,0x69,0x00,0x3b,0x0c,0x5b,0x00))
   205(-1,bytes(0x04,0x08,0x6f,0x3a,0x13,0x52,0x50,0x47,0x3a,0x3a,0x4d,0x6f,0x76,0x65,0x52,0x6f,0x75,0x74,0x65,0x09,0x3a,0x0c,0x40,0x72,0x65,0x70,0x65,0x61,0x74,0x46,0x3a,0x0f,0x40,0x73,0x6b,0x69,0x70,0x70,0x61,0x62,0x6c,0x65,0x54,0x3a,0x0a,0x40,0x77,0x61,0x69,0x74,0x54,0x3a,0x0a,0x40,0x6c,0x69,0x73,0x74,0x5b,0x07,0x6f,0x3a,0x15,0x52,0x50,0x47,0x3a,0x3a,0x4d,0x6f,0x76,0x65,0x43,0x6f,0x6d,0x6d,0x61,0x6e,0x64,0x07,0x3a,0x0a,0x40,0x63,0x6f,0x64,0x65,0x69,0x11,0x3a,0x10,0x40,0x70,0x61,0x72,0x61,0x6d,0x65,0x74,0x65,0x72,0x73,0x5b,0x00,0x6f,0x3b,0x0a,0x07,0x3b,0x0b,0x69,0x00,0x3b,0x0c,0x5b,0x00))
   250(bytes(0x04,0x08,0x6f,0x3a,0x0c,0x52,0x50,0x47,0x3a,0x3a,0x53,0x45,0x08,0x3a,0x0a,0x40,0x6e,0x61,0x6d,0x65,0x49,0x22,0x09,0x4d,0x6f,0x76,0x65,0x06,0x3a,0x06,0x45,0x54,0x3a,0x0b,0x40,0x70,0x69,0x74,0x63,0x68,0x69,0x69,0x3a,0x0c,0x40,0x76,0x6f,0x6c,0x75,0x6d,0x65,0x69,0x55))
   TeleportPlayer(0,515,6,38,0,0)
   EndEventProcessing()
   0()
  EndIf()
  0()



EVENT   21
 PAGE   1
  If(1,1069,0,2,2)
   ShowMessageFace("",0,0,2,1)
   ShowMessage("妖魔を警戒し、固く閉ざされている……")
   EndEventProcessing()
   0()
  EndIf()
  If(1,1069,0,3,1)
   250(bytes(0x04,0x08,0x6f,0x3a,0x0c,0x52,0x50,0x47,0x3a,0x3a,0x53,0x45,0x08,0x3a,0x0a,0x40,0x6e,0x61,0x6d,0x65,0x49,0x22,0x0a,0x4f,0x70,0x65,0x6e,0x31,0x06,0x3a,0x06,0x45,0x54,0x3a,0x0b,0x40,0x70,0x69,0x74,0x63,0x68,0x69,0x69,0x3a,0x0c,0x40,0x76,0x6f,0x6c,0x75,0x6d,0x65,0x69,0x55))
   205(0,bytes(0x04,0x08,0x6f,0x3a,0x13,0x52,0x50,0x47,0x3a,0x3a,0x4d,0x6f,0x76,0x65,0x52,0x6f,0x75,0x74,0x65,0x09,0x3a,0x0c,0x40,0x72,0x65,0x70,0x65,0x61,0x74,0x46,0x3a,0x0f,0x40,0x73,0x6b,0x69,0x70,0x70,0x61,0x62,0x6c,0x65,0x46,0x3a,0x0a,0x40,0x77,0x61,0x69,0x74,0x54,0x3a,0x0a,0x40,0x6c,0x69,0x73,0x74,0x5b,0x0c,0x6f,0x3a,0x15,0x52,0x50,0x47,0x3a,0x3a,0x4d,0x6f,0x76,0x65,0x43,0x6f,0x6d,0x6d,0x61,0x6e,0x64,0x07,0x3a,0x0a,0x40,0x63,0x6f,0x64,0x65,0x69,0x16,0x3a,0x10,0x40,0x70,0x61,0x72,0x61,0x6d,0x65,0x74,0x65,0x72,0x73,0x5b,0x00,0x6f,0x3b,0x0a,0x07,0x3b,0x0b,0x69,0x14,0x3b,0x0c,0x5b,0x06,0x69,0x08,0x6f,0x3b,0x0a,0x07,0x3b,0x0b,0x69,0x17,0x3b,0x0c,0x5b,0x00,0x6f,0x3b,0x0a,0x07,0x3b,0x0b,0x69,0x14,0x3b,0x0c,0x5b,0x06,0x69,0x08,0x6f,0x3b,0x0a,0x07,0x3b,0x0b,0x69,0x18,0x3b,0x0c,0x5b,0x00,0x6f,0x3b,0x0a,0x07,0x3b,0x0b,0x69,0x2a,0x3b,0x0c,0x5b,0x00,0x6f,0x3b,0x0a,0x07,0x3b,0x0b,0x69,0x00,0x3b,0x0c,0x5b,0x00))
   205(-1,bytes(0x04,0x08,0x6f,0x3a,0x13,0x52,0x50,0x47,0x3a,0x3a,0x4d,0x6f,0x76,0x65,0x52,0x6f,0x75,0x74,0x65,0x09,0x3a,0x0c,0x40,0x72,0x65,0x70,0x65,0x61,0x74,0x46,0x3a,0x0f,0x40,0x73,0x6b,0x69,0x70,0x70,0x61,0x62,0x6c,0x65,0x54,0x3a,0x0a,0x40,0x77,0x61,0x69,0x74,0x54,0x3a,0x0a,0x40,0x6c,0x69,0x73,0x74,0x5b,0x07,0x6f,0x3a,0x15,0x52,0x50,0x47,0x3a,0x3a,0x4d,0x6f,0x76,0x65,0x43,0x6f,0x6d,0x6d,0x61,0x6e,0x64,0x07,0x3a,0x0a,0x40,0x63,0x6f,0x64,0x65,0x69,0x11,0x3a,0x10,0x40,0x70,0x61,0x72,0x61,0x6d,0x65,0x74,0x65,0x72,0x73,0x5b,0x00,0x6f,0x3b,0x0a,0x07,0x3b,0x0b,0x69,0x00,0x3b,0x0c,0x5b,0x00))
   250(bytes(0x04,0x08,0x6f,0x3a,0x0c,0x52,0x50,0x47,0x3a,0x3a,0x53,0x45,0x08,0x3a,0x0a,0x40,0x6e,0x61,0x6d,0x65,0x49,0x22,0x09,0x4d,0x6f,0x76,0x65,0x06,0x3a,0x06,0x45,0x54,0x3a,0x0b,0x40,0x70,0x69,0x74,0x63,0x68,0x69,0x69,0x3a,0x0c,0x40,0x76,0x6f,0x6c,0x75,0x6d,0x65,0x69,0x55))
   TeleportPlayer(0,515,40,42,0,0)
   EndEventProcessing()
   0()
  EndIf()
  0()



EVENT   22
 PAGE   1
  If(1,1069,0,2,2)
   ShowMessageFace("",0,0,2,1)
   ShowMessage("妖魔を警戒し、固く閉ざされている……")
   EndEventProcessing()
   0()
  EndIf()
  If(1,1069,0,3,1)
   250(bytes(0x04,0x08,0x6f,0x3a,0x0c,0x52,0x50,0x47,0x3a,0x3a,0x53,0x45,0x08,0x3a,0x0a,0x40,0x6e,0x61,0x6d,0x65,0x49,0x22,0x0a,0x4f,0x70,0x65,0x6e,0x31,0x06,0x3a,0x06,0x45,0x54,0x3a,0x0b,0x40,0x70,0x69,0x74,0x63,0x68,0x69,0x69,0x3a,0x0c,0x40,0x76,0x6f,0x6c,0x75,0x6d,0x65,0x69,0x55))
   205(0,bytes(0x04,0x08,0x6f,0x3a,0x13,0x52,0x50,0x47,0x3a,0x3a,0x4d,0x6f,0x76,0x65,0x52,0x6f,0x75,0x74,0x65,0x09,0x3a,0x0c,0x40,0x72,0x65,0x70,0x65,0x61,0x74,0x46,0x3a,0x0f,0x40,0x73,0x6b,0x69,0x70,0x70,0x61,0x62,0x6c,0x65,0x46,0x3a,0x0a,0x40,0x77,0x61,0x69,0x74,0x54,0x3a,0x0a,0x40,0x6c,0x69,0x73,0x74,0x5b,0x0c,0x6f,0x3a,0x15,0x52,0x50,0x47,0x3a,0x3a,0x4d,0x6f,0x76,0x65,0x43,0x6f,0x6d,0x6d,0x61,0x6e,0x64,0x07,0x3a,0x0a,0x40,0x63,0x6f,0x64,0x65,0x69,0x16,0x3a,0x10,0x40,0x70,0x61,0x72,0x61,0x6d,0x65,0x74,0x65,0x72,0x73,0x5b,0x00,0x6f,0x3b,0x0a,0x07,0x3b,0x0b,0x69,0x14,0x3b,0x0c,0x5b,0x06,0x69,0x08,0x6f,0x3b,0x0a,0x07,0x3b,0x0b,0x69,0x17,0x3b,0x0c,0x5b,0x00,0x6f,0x3b,0x0a,0x07,0x3b,0x0b,0x69,0x14,0x3b,0x0c,0x5b,0x06,0x69,0x08,0x6f,0x3b,0x0a,0x07,0x3b,0x0b,0x69,0x18,0x3b,0x0c,0x5b,0x00,0x6f,0x3b,0x0a,0x07,0x3b,0x0b,0x69,0x2a,0x3b,0x0c,0x5b,0x00,0x6f,0x3b,0x0a,0x07,0x3b,0x0b,0x69,0x00,0x3b,0x0c,0x5b,0x00))
   205(-1,bytes(0x04,0x08,0x6f,0x3a,0x13,0x52,0x50,0x47,0x3a,0x3a,0x4d,0x6f,0x76,0x65,0x52,0x6f,0x75,0x74,0x65,0x09,0x3a,0x0c,0x40,0x72,0x65,0x70,0x65,0x61,0x74,0x46,0x3a,0x0f,0x40,0x73,0x6b,0x69,0x70,0x70,0x61,0x62,0x6c,0x65,0x54,0x3a,0x0a,0x40,0x77,0x61,0x69,0x74,0x54,0x3a,0x0a,0x40,0x6c,0x69,0x73,0x74,0x5b,0x07,0x6f,0x3a,0x15,0x52,0x50,0x47,0x3a,0x3a,0x4d,0x6f,0x76,0x65,0x43,0x6f,0x6d,0x6d,0x61,0x6e,0x64,0x07,0x3a,0x0a,0x40,0x63,0x6f,0x64,0x65,0x69,0x11,0x3a,0x10,0x40,0x70,0x61,0x72,0x61,0x6d,0x65,0x74,0x65,0x72,0x73,0x5b,0x00,0x6f,0x3b,0x0a,0x07,0x3b,0x0b,0x69,0x00,0x3b,0x0c,0x5b,0x00))
   250(bytes(0x04,0x08,0x6f,0x3a,0x0c,0x52,0x50,0x47,0x3a,0x3a,0x53,0x45,0x08,0x3a,0x0a,0x40,0x6e,0x61,0x6d,0x65,0x49,0x22,0x09,0x4d,0x6f,0x76,0x65,0x06,0x3a,0x06,0x45,0x54,0x3a,0x0b,0x40,0x70,0x69,0x74,0x63,0x68,0x69,0x69,0x3a,0x0c,0x40,0x76,0x6f,0x6c,0x75,0x6d,0x65,0x69,0x55))
   TeleportPlayer(0,515,56,38,0,0)
   EndEventProcessing()
   0()
  EndIf()
  0()



EVENT   23
 PAGE   1
  If(1,1069,0,2,2)
   ShowMessageFace("",0,0,2,1)
   ShowMessage("妖魔を警戒し、固く閉ざされている……")
   EndEventProcessing()
   0()
  EndIf()
  If(1,1069,0,3,1)
   250(bytes(0x04,0x08,0x6f,0x3a,0x0c,0x52,0x50,0x47,0x3a,0x3a,0x53,0x45,0x08,0x3a,0x0a,0x40,0x6e,0x61,0x6d,0x65,0x49,0x22,0x0a,0x4f,0x70,0x65,0x6e,0x31,0x06,0x3a,0x06,0x45,0x54,0x3a,0x0b,0x40,0x70,0x69,0x74,0x63,0x68,0x69,0x69,0x3a,0x0c,0x40,0x76,0x6f,0x6c,0x75,0x6d,0x65,0x69,0x55))
   205(0,bytes(0x04,0x08,0x6f,0x3a,0x13,0x52,0x50,0x47,0x3a,0x3a,0x4d,0x6f,0x76,0x65,0x52,0x6f,0x75,0x74,0x65,0x09,0x3a,0x0c,0x40,0x72,0x65,0x70,0x65,0x61,0x74,0x46,0x3a,0x0f,0x40,0x73,0x6b,0x69,0x70,0x70,0x61,0x62,0x6c,0x65,0x46,0x3a,0x0a,0x40,0x77,0x61,0x69,0x74,0x54,0x3a,0x0a,0x40,0x6c,0x69,0x73,0x74,0x5b,0x0c,0x6f,0x3a,0x15,0x52,0x50,0x47,0x3a,0x3a,0x4d,0x6f,0x76,0x65,0x43,0x6f,0x6d,0x6d,0x61,0x6e,0x64,0x07,0x3a,0x0a,0x40,0x63,0x6f,0x64,0x65,0x69,0x16,0x3a,0x10,0x40,0x70,0x61,0x72,0x61,0x6d,0x65,0x74,0x65,0x72,0x73,0x5b,0x00,0x6f,0x3b,0x0a,0x07,0x3b,0x0b,0x69,0x14,0x3b,0x0c,0x5b,0x06,0x69,0x08,0x6f,0x3b,0x0a,0x07,0x3b,0x0b,0x69,0x17,0x3b,0x0c,0x5b,0x00,0x6f,0x3b,0x0a,0x07,0x3b,0x0b,0x69,0x14,0x3b,0x0c,0x5b,0x06,0x69,0x08,0x6f,0x3b,0x0a,0x07,0x3b,0x0b,0x69,0x18,0x3b,0x0c,0x5b,0x00,0x6f,0x3b,0x0a,0x07,0x3b,0x0b,0x69,0x2a,0x3b,0x0c,0x5b,0x00,0x6f,0x3b,0x0a,0x07,0x3b,0x0b,0x69,0x00,0x3b,0x0c,0x5b,0x00))
   205(-1,bytes(0x04,0x08,0x6f,0x3a,0x13,0x52,0x50,0x47,0x3a,0x3a,0x4d,0x6f,0x76,0x65,0x52,0x6f,0x75,0x74,0x65,0x09,0x3a,0x0c,0x40,0x72,0x65,0x70,0x65,0x61,0x74,0x46,0x3a,0x0f,0x40,0x73,0x6b,0x69,0x70,0x70,0x61,0x62,0x6c,0x65,0x54,0x3a,0x0a,0x40,0x77,0x61,0x69,0x74,0x54,0x3a,0x0a,0x40,0x6c,0x69,0x73,0x74,0x5b,0x07,0x6f,0x3a,0x15,0x52,0x50,0x47,0x3a,0x3a,0x4d,0x6f,0x76,0x65,0x43,0x6f,0x6d,0x6d,0x61,0x6e,0x64,0x07,0x3a,0x0a,0x40,0x63,0x6f,0x64,0x65,0x69,0x11,0x3a,0x10,0x40,0x70,0x61,0x72,0x61,0x6d,0x65,0x74,0x65,0x72,0x73,0x5b,0x00,0x6f,0x3b,0x0a,0x07,0x3b,0x0b,0x69,0x00,0x3b,0x0c,0x5b,0x00))
   250(bytes(0x04,0x08,0x6f,0x3a,0x0c,0x52,0x50,0x47,0x3a,0x3a,0x53,0x45,0x08,0x3a,0x0a,0x40,0x6e,0x61,0x6d,0x65,0x49,0x22,0x09,0x4d,0x6f,0x76,0x65,0x06,0x3a,0x06,0x45,0x54,0x3a,0x0b,0x40,0x70,0x69,0x74,0x63,0x68,0x69,0x69,0x3a,0x0c,0x40,0x76,0x6f,0x6c,0x75,0x6d,0x65,0x69,0x55))
   TeleportPlayer(0,515,14,61,0,0)
   EndEventProcessing()
   0()
  EndIf()
  0()



EVENT   24
 PAGE   1
  If(1,1069,0,2,2)
   ShowMessageFace("",0,0,2,1)
   ShowMessage("妖魔を警戒し、固く閉ざされている……")
   EndEventProcessing()
   0()
  EndIf()
  If(1,1069,0,3,1)
   250(bytes(0x04,0x08,0x6f,0x3a,0x0c,0x52,0x50,0x47,0x3a,0x3a,0x53,0x45,0x08,0x3a,0x0a,0x40,0x6e,0x61,0x6d,0x65,0x49,0x22,0x0a,0x4f,0x70,0x65,0x6e,0x31,0x06,0x3a,0x06,0x45,0x54,0x3a,0x0b,0x40,0x70,0x69,0x74,0x63,0x68,0x69,0x69,0x3a,0x0c,0x40,0x76,0x6f,0x6c,0x75,0x6d,0x65,0x69,0x55))
   205(0,bytes(0x04,0x08,0x6f,0x3a,0x13,0x52,0x50,0x47,0x3a,0x3a,0x4d,0x6f,0x76,0x65,0x52,0x6f,0x75,0x74,0x65,0x09,0x3a,0x0c,0x40,0x72,0x65,0x70,0x65,0x61,0x74,0x46,0x3a,0x0f,0x40,0x73,0x6b,0x69,0x70,0x70,0x61,0x62,0x6c,0x65,0x46,0x3a,0x0a,0x40,0x77,0x61,0x69,0x74,0x54,0x3a,0x0a,0x40,0x6c,0x69,0x73,0x74,0x5b,0x0c,0x6f,0x3a,0x15,0x52,0x50,0x47,0x3a,0x3a,0x4d,0x6f,0x76,0x65,0x43,0x6f,0x6d,0x6d,0x61,0x6e,0x64,0x07,0x3a,0x0a,0x40,0x63,0x6f,0x64,0x65,0x69,0x16,0x3a,0x10,0x40,0x70,0x61,0x72,0x61,0x6d,0x65,0x74,0x65,0x72,0x73,0x5b,0x00,0x6f,0x3b,0x0a,0x07,0x3b,0x0b,0x69,0x14,0x3b,0x0c,0x5b,0x06,0x69,0x08,0x6f,0x3b,0x0a,0x07,0x3b,0x0b,0x69,0x17,0x3b,0x0c,0x5b,0x00,0x6f,0x3b,0x0a,0x07,0x3b,0x0b,0x69,0x14,0x3b,0x0c,0x5b,0x06,0x69,0x08,0x6f,0x3b,0x0a,0x07,0x3b,0x0b,0x69,0x18,0x3b,0x0c,0x5b,0x00,0x6f,0x3b,0x0a,0x07,0x3b,0x0b,0x69,0x2a,0x3b,0x0c,0x5b,0x00,0x6f,0x3b,0x0a,0x07,0x3b,0x0b,0x69,0x00,0x3b,0x0c,0x5b,0x00))
   205(-1,bytes(0x04,0x08,0x6f,0x3a,0x13,0x52,0x50,0x47,0x3a,0x3a,0x4d,0x6f,0x76,0x65,0x52,0x6f,0x75,0x74,0x65,0x09,0x3a,0x0c,0x40,0x72,0x65,0x70,0x65,0x61,0x74,0x46,0x3a,0x0f,0x40,0x73,0x6b,0x69,0x70,0x70,0x61,0x62,0x6c,0x65,0x54,0x3a,0x0a,0x40,0x77,0x61,0x69,0x74,0x54,0x3a,0x0a,0x40,0x6c,0x69,0x73,0x74,0x5b,0x07,0x6f,0x3a,0x15,0x52,0x50,0x47,0x3a,0x3a,0x4d,0x6f,0x76,0x65,0x43,0x6f,0x6d,0x6d,0x61,0x6e,0x64,0x07,0x3a,0x0a,0x40,0x63,0x6f,0x64,0x65,0x69,0x11,0x3a,0x10,0x40,0x70,0x61,0x72,0x61,0x6d,0x65,0x74,0x65,0x72,0x73,0x5b,0x00,0x6f,0x3b,0x0a,0x07,0x3b,0x0b,0x69,0x00,0x3b,0x0c,0x5b,0x00))
   250(bytes(0x04,0x08,0x6f,0x3a,0x0c,0x52,0x50,0x47,0x3a,0x3a,0x53,0x45,0x08,0x3a,0x0a,0x40,0x6e,0x61,0x6d,0x65,0x49,0x22,0x09,0x4d,0x6f,0x76,0x65,0x06,0x3a,0x06,0x45,0x54,0x3a,0x0b,0x40,0x70,0x69,0x74,0x63,0x68,0x69,0x69,0x3a,0x0c,0x40,0x76,0x6f,0x6c,0x75,0x6d,0x65,0x69,0x55))
   TeleportPlayer(0,515,33,73,0,0)
   EndEventProcessing()
   0()
  EndIf()
  0()



EVENT   25
 PAGE   1
  250(bytes(0x04,0x08,0x6f,0x3a,0x0c,0x52,0x50,0x47,0x3a,0x3a,0x53,0x45,0x08,0x3a,0x0a,0x40,0x6e,0x61,0x6d,0x65,0x49,0x22,0x09,0x4d,0x6f,0x76,0x65,0x06,0x3a,0x06,0x45,0x54,0x3a,0x0b,0x40,0x70,0x69,0x74,0x63,0x68,0x69,0x69,0x3a,0x0c,0x40,0x76,0x6f,0x6c,0x75,0x6d,0x65,0x69,0x55))
  TeleportPlayer(0,194,75,119,2,0)
  0()



EVENT   26
 PAGE   1
  250(bytes(0x04,0x08,0x6f,0x3a,0x0c,0x52,0x50,0x47,0x3a,0x3a,0x53,0x45,0x08,0x3a,0x0a,0x40,0x6e,0x61,0x6d,0x65,0x49,0x22,0x09,0x4d,0x6f,0x76,0x65,0x06,0x3a,0x06,0x45,0x54,0x3a,0x0b,0x40,0x70,0x69,0x74,0x63,0x68,0x69,0x69,0x3a,0x0c,0x40,0x76,0x6f,0x6c,0x75,0x6d,0x65,0x69,0x55))
  TeleportPlayer(0,194,75,119,2,0)
  0()



EVENT   27
 PAGE   1
  250(bytes(0x04,0x08,0x6f,0x3a,0x0c,0x52,0x50,0x47,0x3a,0x3a,0x53,0x45,0x08,0x3a,0x0a,0x40,0x6e,0x61,0x6d,0x65,0x49,0x22,0x09,0x4d,0x6f,0x76,0x65,0x06,0x3a,0x06,0x45,0x54,0x3a,0x0b,0x40,0x70,0x69,0x74,0x63,0x68,0x69,0x69,0x3a,0x0c,0x40,0x76,0x6f,0x6c,0x75,0x6d,0x65,0x69,0x55))
  TeleportPlayer(0,194,75,119,2,0)
  0()



EVENT   28
 PAGE   1
  250(bytes(0x04,0x08,0x6f,0x3a,0x0c,0x52,0x50,0x47,0x3a,0x3a,0x53,0x45,0x08,0x3a,0x0a,0x40,0x6e,0x61,0x6d,0x65,0x49,0x22,0x09,0x4d,0x6f,0x76,0x65,0x06,0x3a,0x06,0x45,0x54,0x3a,0x0b,0x40,0x70,0x69,0x74,0x63,0x68,0x69,0x69,0x3a,0x0c,0x40,0x76,0x6f,0x6c,0x75,0x6d,0x65,0x69,0x55))
  TeleportPlayer(0,194,75,119,2,0)
  0()



EVENT   29
 PAGE   1
  250(bytes(0x04,0x08,0x6f,0x3a,0x0c,0x52,0x50,0x47,0x3a,0x3a,0x53,0x45,0x08,0x3a,0x0a,0x40,0x6e,0x61,0x6d,0x65,0x49,0x22,0x09,0x4d,0x6f,0x76,0x65,0x06,0x3a,0x06,0x45,0x54,0x3a,0x0b,0x40,0x70,0x69,0x74,0x63,0x68,0x69,0x69,0x3a,0x0c,0x40,0x76,0x6f,0x6c,0x75,0x6d,0x65,0x69,0x55))
  TeleportPlayer(0,194,75,119,2,0)
  0()



EVENT   30
 PAGE   1
  250(bytes(0x04,0x08,0x6f,0x3a,0x0c,0x52,0x50,0x47,0x3a,0x3a,0x53,0x45,0x08,0x3a,0x0a,0x40,0x6e,0x61,0x6d,0x65,0x49,0x22,0x09,0x4d,0x6f,0x76,0x65,0x06,0x3a,0x06,0x45,0x54,0x3a,0x0b,0x40,0x70,0x69,0x74,0x63,0x68,0x69,0x69,0x3a,0x0c,0x40,0x76,0x6f,0x6c,0x75,0x6d,0x65,0x69,0x55))
  TeleportPlayer(0,194,75,119,2,0)
  0()



EVENT   31
 PAGE   1
  250(bytes(0x04,0x08,0x6f,0x3a,0x0c,0x52,0x50,0x47,0x3a,0x3a,0x53,0x45,0x08,0x3a,0x0a,0x40,0x6e,0x61,0x6d,0x65,0x49,0x22,0x09,0x4d,0x6f,0x76,0x65,0x06,0x3a,0x06,0x45,0x54,0x3a,0x0b,0x40,0x70,0x69,0x74,0x63,0x68,0x69,0x69,0x3a,0x0c,0x40,0x76,0x6f,0x6c,0x75,0x6d,0x65,0x69,0x55))
  TeleportPlayer(0,194,75,119,2,0)
  0()



EVENT   32
 PAGE   1
  250(bytes(0x04,0x08,0x6f,0x3a,0x0c,0x52,0x50,0x47,0x3a,0x3a,0x53,0x45,0x08,0x3a,0x0a,0x40,0x6e,0x61,0x6d,0x65,0x49,0x22,0x09,0x4d,0x6f,0x76,0x65,0x06,0x3a,0x06,0x45,0x54,0x3a,0x0b,0x40,0x70,0x69,0x74,0x63,0x68,0x69,0x69,0x3a,0x0c,0x40,0x76,0x6f,0x6c,0x75,0x6d,0x65,0x69,0x55))
  TeleportPlayer(0,194,75,119,2,0)
  0()



EVENT   33
 PAGE   1
  250(bytes(0x04,0x08,0x6f,0x3a,0x0c,0x52,0x50,0x47,0x3a,0x3a,0x53,0x45,0x08,0x3a,0x0a,0x40,0x6e,0x61,0x6d,0x65,0x49,0x22,0x09,0x4d,0x6f,0x76,0x65,0x06,0x3a,0x06,0x45,0x54,0x3a,0x0b,0x40,0x70,0x69,0x74,0x63,0x68,0x69,0x69,0x3a,0x0c,0x40,0x76,0x6f,0x6c,0x75,0x6d,0x65,0x69,0x55))
  TeleportPlayer(0,194,75,119,2,0)
  0()



EVENT   34
 PAGE   1
  250(bytes(0x04,0x08,0x6f,0x3a,0x0c,0x52,0x50,0x47,0x3a,0x3a,0x53,0x45,0x08,0x3a,0x0a,0x40,0x6e,0x61,0x6d,0x65,0x49,0x22,0x09,0x4d,0x6f,0x76,0x65,0x06,0x3a,0x06,0x45,0x54,0x3a,0x0b,0x40,0x70,0x69,0x74,0x63,0x68,0x69,0x69,0x3a,0x0c,0x40,0x76,0x6f,0x6c,0x75,0x6d,0x65,0x69,0x55))
  TeleportPlayer(0,194,75,119,2,0)
  0()



EVENT   35
 PAGE   1
  250(bytes(0x04,0x08,0x6f,0x3a,0x0c,0x52,0x50,0x47,0x3a,0x3a,0x53,0x45,0x08,0x3a,0x0a,0x40,0x6e,0x61,0x6d,0x65,0x49,0x22,0x09,0x4d,0x6f,0x76,0x65,0x06,0x3a,0x06,0x45,0x54,0x3a,0x0b,0x40,0x70,0x69,0x74,0x63,0x68,0x69,0x69,0x3a,0x0c,0x40,0x76,0x6f,0x6c,0x75,0x6d,0x65,0x69,0x55))
  TeleportPlayer(0,194,75,119,2,0)
  0()



EVENT   36
 PAGE   1
  250(bytes(0x04,0x08,0x6f,0x3a,0x0c,0x52,0x50,0x47,0x3a,0x3a,0x53,0x45,0x08,0x3a,0x0a,0x40,0x6e,0x61,0x6d,0x65,0x49,0x22,0x09,0x4d,0x6f,0x76,0x65,0x06,0x3a,0x06,0x45,0x54,0x3a,0x0b,0x40,0x70,0x69,0x74,0x63,0x68,0x69,0x69,0x3a,0x0c,0x40,0x76,0x6f,0x6c,0x75,0x6d,0x65,0x69,0x55))
  TeleportPlayer(0,194,75,119,2,0)
  0()



EVENT   37
 PAGE   1
  250(bytes(0x04,0x08,0x6f,0x3a,0x0c,0x52,0x50,0x47,0x3a,0x3a,0x53,0x45,0x08,0x3a,0x0a,0x40,0x6e,0x61,0x6d,0x65,0x49,0x22,0x09,0x4d,0x6f,0x76,0x65,0x06,0x3a,0x06,0x45,0x54,0x3a,0x0b,0x40,0x70,0x69,0x74,0x63,0x68,0x69,0x69,0x3a,0x0c,0x40,0x76,0x6f,0x6c,0x75,0x6d,0x65,0x69,0x55))
  TeleportPlayer(0,194,75,119,2,0)
  0()



EVENT   38
 PAGE   1
  250(bytes(0x04,0x08,0x6f,0x3a,0x0c,0x52,0x50,0x47,0x3a,0x3a,0x53,0x45,0x08,0x3a,0x0a,0x40,0x6e,0x61,0x6d,0x65,0x49,0x22,0x09,0x4d,0x6f,0x76,0x65,0x06,0x3a,0x06,0x45,0x54,0x3a,0x0b,0x40,0x70,0x69,0x74,0x63,0x68,0x69,0x69,0x3a,0x0c,0x40,0x76,0x6f,0x6c,0x75,0x6d,0x65,0x69,0x55))
  TeleportPlayer(0,194,75,119,2,0)
  0()



EVENT   39
 PAGE   1
  250(bytes(0x04,0x08,0x6f,0x3a,0x0c,0x52,0x50,0x47,0x3a,0x3a,0x53,0x45,0x08,0x3a,0x0a,0x40,0x6e,0x61,0x6d,0x65,0x49,0x22,0x09,0x4d,0x6f,0x76,0x65,0x06,0x3a,0x06,0x45,0x54,0x3a,0x0b,0x40,0x70,0x69,0x74,0x63,0x68,0x69,0x69,0x3a,0x0c,0x40,0x76,0x6f,0x6c,0x75,0x6d,0x65,0x69,0x55))
  TeleportPlayer(0,194,75,119,2,0)
  0()



EVENT   40
 PAGE   1
  250(bytes(0x04,0x08,0x6f,0x3a,0x0c,0x52,0x50,0x47,0x3a,0x3a,0x53,0x45,0x08,0x3a,0x0a,0x40,0x6e,0x61,0x6d,0x65,0x49,0x22,0x09,0x4d,0x6f,0x76,0x65,0x06,0x3a,0x06,0x45,0x54,0x3a,0x0b,0x40,0x70,0x69,0x74,0x63,0x68,0x69,0x69,0x3a,0x0c,0x40,0x76,0x6f,0x6c,0x75,0x6d,0x65,0x69,0x55))
  TeleportPlayer(0,194,75,119,2,0)
  0()



EVENT   41
 PAGE   1
  250(bytes(0x04,0x08,0x6f,0x3a,0x0c,0x52,0x50,0x47,0x3a,0x3a,0x53,0x45,0x08,0x3a,0x0a,0x40,0x6e,0x61,0x6d,0x65,0x49,0x22,0x09,0x4d,0x6f,0x76,0x65,0x06,0x3a,0x06,0x45,0x54,0x3a,0x0b,0x40,0x70,0x69,0x74,0x63,0x68,0x69,0x69,0x3a,0x0c,0x40,0x76,0x6f,0x6c,0x75,0x6d,0x65,0x69,0x55))
  TeleportPlayer(0,194,75,119,2,0)
  0()



EVENT   42
 PAGE   1
  250(bytes(0x04,0x08,0x6f,0x3a,0x0c,0x52,0x50,0x47,0x3a,0x3a,0x53,0x45,0x08,0x3a,0x0a,0x40,0x6e,0x61,0x6d,0x65,0x49,0x22,0x09,0x4d,0x6f,0x76,0x65,0x06,0x3a,0x06,0x45,0x54,0x3a,0x0b,0x40,0x70,0x69,0x74,0x63,0x68,0x69,0x69,0x3a,0x0c,0x40,0x76,0x6f,0x6c,0x75,0x6d,0x65,0x69,0x55))
  TeleportPlayer(0,194,75,119,2,0)
  0()



EVENT   43
 PAGE   1
  250(bytes(0x04,0x08,0x6f,0x3a,0x0c,0x52,0x50,0x47,0x3a,0x3a,0x53,0x45,0x08,0x3a,0x0a,0x40,0x6e,0x61,0x6d,0x65,0x49,0x22,0x09,0x4d,0x6f,0x76,0x65,0x06,0x3a,0x06,0x45,0x54,0x3a,0x0b,0x40,0x70,0x69,0x74,0x63,0x68,0x69,0x69,0x3a,0x0c,0x40,0x76,0x6f,0x6c,0x75,0x6d,0x65,0x69,0x55))
  TeleportPlayer(0,194,75,119,2,0)
  0()



EVENT   44
 PAGE   1
  // condition: variable 1069 >= 3
  ShowMessageFace("",0,0,2,1)
  ShowMessage("\\n<Guard>なぜ、クィーンサキュバスなんて超大物が村に……")
  ShowMessage("やはり、勇者ハインリヒを狙っていたのでしょうか。")
  355("actor_label_jump")
  EndEventProcessing()
  DefineLabel("341")
  ShowMessageFace("lilith_fc1",0,0,2,2)
  ShowMessage("\\n<リリス＆リリム>ちょっとつまみ食いに来ただけよ……")
  ShowMessage("不可侵条約を破るつもりもなかったわ。")
  EndEventProcessing()
  0()



EVENT   45
 PAGE   1
  250(bytes(0x04,0x08,0x6f,0x3a,0x0c,0x52,0x50,0x47,0x3a,0x3a,0x53,0x45,0x08,0x3a,0x0a,0x40,0x6e,0x61,0x6d,0x65,0x49,0x22,0x09,0x4d,0x6f,0x76,0x65,0x06,0x3a,0x06,0x45,0x54,0x3a,0x0b,0x40,0x70,0x69,0x74,0x63,0x68,0x69,0x69,0x3a,0x0c,0x40,0x76,0x6f,0x6c,0x75,0x6d,0x65,0x69,0x55))
  TeleportPlayer(0,194,75,119,0,0)
  0()



EVENT   46
 PAGE   1
  250(bytes(0x04,0x08,0x6f,0x3a,0x0c,0x52,0x50,0x47,0x3a,0x3a,0x53,0x45,0x08,0x3a,0x0a,0x40,0x6e,0x61,0x6d,0x65,0x49,0x22,0x09,0x4d,0x6f,0x76,0x65,0x06,0x3a,0x06,0x45,0x54,0x3a,0x0b,0x40,0x70,0x69,0x74,0x63,0x68,0x69,0x69,0x3a,0x0c,0x40,0x76,0x6f,0x6c,0x75,0x6d,0x65,0x69,0x55))
  TeleportPlayer(0,194,75,119,0,0)
  0()



EVENT   47
 PAGE   1
  250(bytes(0x04,0x08,0x6f,0x3a,0x0c,0x52,0x50,0x47,0x3a,0x3a,0x53,0x45,0x08,0x3a,0x0a,0x40,0x6e,0x61,0x6d,0x65,0x49,0x22,0x09,0x4d,0x6f,0x76,0x65,0x06,0x3a,0x06,0x45,0x54,0x3a,0x0b,0x40,0x70,0x69,0x74,0x63,0x68,0x69,0x69,0x3a,0x0c,0x40,0x76,0x6f,0x6c,0x75,0x6d,0x65,0x69,0x55))
  TeleportPlayer(0,194,75,119,0,0)
  0()



EVENT   48
 PAGE   1
  250(bytes(0x04,0x08,0x6f,0x3a,0x0c,0x52,0x50,0x47,0x3a,0x3a,0x53,0x45,0x08,0x3a,0x0a,0x40,0x6e,0x61,0x6d,0x65,0x49,0x22,0x09,0x4d,0x6f,0x76,0x65,0x06,0x3a,0x06,0x45,0x54,0x3a,0x0b,0x40,0x70,0x69,0x74,0x63,0x68,0x69,0x69,0x3a,0x0c,0x40,0x76,0x6f,0x6c,0x75,0x6d,0x65,0x69,0x55))
  TeleportPlayer(0,194,75,119,0,0)
  0()



EVENT   49
 PAGE   1
  250(bytes(0x04,0x08,0x6f,0x3a,0x0c,0x52,0x50,0x47,0x3a,0x3a,0x53,0x45,0x08,0x3a,0x0a,0x40,0x6e,0x61,0x6d,0x65,0x49,0x22,0x09,0x4d,0x6f,0x76,0x65,0x06,0x3a,0x06,0x45,0x54,0x3a,0x0b,0x40,0x70,0x69,0x74,0x63,0x68,0x69,0x69,0x3a,0x0c,0x40,0x76,0x6f,0x6c,0x75,0x6d,0x65,0x69,0x55))
  TeleportPlayer(0,194,75,119,0,0)
  0()



EVENT   50
 PAGE   1
  250(bytes(0x04,0x08,0x6f,0x3a,0x0c,0x52,0x50,0x47,0x3a,0x3a,0x53,0x45,0x08,0x3a,0x0a,0x40,0x6e,0x61,0x6d,0x65,0x49,0x22,0x09,0x4d,0x6f,0x76,0x65,0x06,0x3a,0x06,0x45,0x54,0x3a,0x0b,0x40,0x70,0x69,0x74,0x63,0x68,0x69,0x69,0x3a,0x0c,0x40,0x76,0x6f,0x6c,0x75,0x6d,0x65,0x69,0x55))
  TeleportPlayer(0,194,75,119,0,0)
  0()



EVENT   51
 PAGE   1
  250(bytes(0x04,0x08,0x6f,0x3a,0x0c,0x52,0x50,0x47,0x3a,0x3a,0x53,0x45,0x08,0x3a,0x0a,0x40,0x6e,0x61,0x6d,0x65,0x49,0x22,0x09,0x4d,0x6f,0x76,0x65,0x06,0x3a,0x06,0x45,0x54,0x3a,0x0b,0x40,0x70,0x69,0x74,0x63,0x68,0x69,0x69,0x3a,0x0c,0x40,0x76,0x6f,0x6c,0x75,0x6d,0x65,0x69,0x55))
  TeleportPlayer(0,194,75,119,0,0)
  0()



EVENT   52
 PAGE   1
  250(bytes(0x04,0x08,0x6f,0x3a,0x0c,0x52,0x50,0x47,0x3a,0x3a,0x53,0x45,0x08,0x3a,0x0a,0x40,0x6e,0x61,0x6d,0x65,0x49,0x22,0x09,0x4d,0x6f,0x76,0x65,0x06,0x3a,0x06,0x45,0x54,0x3a,0x0b,0x40,0x70,0x69,0x74,0x63,0x68,0x69,0x69,0x3a,0x0c,0x40,0x76,0x6f,0x6c,0x75,0x6d,0x65,0x69,0x55))
  TeleportPlayer(0,194,75,119,0,0)
  0()



EVENT   53
 PAGE   1
  250(bytes(0x04,0x08,0x6f,0x3a,0x0c,0x52,0x50,0x47,0x3a,0x3a,0x53,0x45,0x08,0x3a,0x0a,0x40,0x6e,0x61,0x6d,0x65,0x49,0x22,0x09,0x4d,0x6f,0x76,0x65,0x06,0x3a,0x06,0x45,0x54,0x3a,0x0b,0x40,0x70,0x69,0x74,0x63,0x68,0x69,0x69,0x3a,0x0c,0x40,0x76,0x6f,0x6c,0x75,0x6d,0x65,0x69,0x55))
  TeleportPlayer(0,194,75,119,2,0)
  0()



EVENT   54
 PAGE   1
  250(bytes(0x04,0x08,0x6f,0x3a,0x0c,0x52,0x50,0x47,0x3a,0x3a,0x53,0x45,0x08,0x3a,0x0a,0x40,0x6e,0x61,0x6d,0x65,0x49,0x22,0x09,0x4d,0x6f,0x76,0x65,0x06,0x3a,0x06,0x45,0x54,0x3a,0x0b,0x40,0x70,0x69,0x74,0x63,0x68,0x69,0x69,0x3a,0x0c,0x40,0x76,0x6f,0x6c,0x75,0x6d,0x65,0x69,0x55))
  TeleportPlayer(0,194,75,119,2,0)
  0()



EVENT   55
 PAGE   1
  250(bytes(0x04,0x08,0x6f,0x3a,0x0c,0x52,0x50,0x47,0x3a,0x3a,0x53,0x45,0x08,0x3a,0x0a,0x40,0x6e,0x61,0x6d,0x65,0x49,0x22,0x09,0x4d,0x6f,0x76,0x65,0x06,0x3a,0x06,0x45,0x54,0x3a,0x0b,0x40,0x70,0x69,0x74,0x63,0x68,0x69,0x69,0x3a,0x0c,0x40,0x76,0x6f,0x6c,0x75,0x6d,0x65,0x69,0x55))
  TeleportPlayer(0,194,75,119,2,0)
  0()



EVENT   56
 PAGE   1
  250(bytes(0x04,0x08,0x6f,0x3a,0x0c,0x52,0x50,0x47,0x3a,0x3a,0x53,0x45,0x08,0x3a,0x0a,0x40,0x6e,0x61,0x6d,0x65,0x49,0x22,0x09,0x4d,0x6f,0x76,0x65,0x06,0x3a,0x06,0x45,0x54,0x3a,0x0b,0x40,0x70,0x69,0x74,0x63,0x68,0x69,0x69,0x3a,0x0c,0x40,0x76,0x6f,0x6c,0x75,0x6d,0x65,0x69,0x55))
  TeleportPlayer(0,194,75,119,2,0)
  0()



EVENT   57
 PAGE   1
  250(bytes(0x04,0x08,0x6f,0x3a,0x0c,0x52,0x50,0x47,0x3a,0x3a,0x53,0x45,0x08,0x3a,0x0a,0x40,0x6e,0x61,0x6d,0x65,0x49,0x22,0x09,0x4d,0x6f,0x76,0x65,0x06,0x3a,0x06,0x45,0x54,0x3a,0x0b,0x40,0x70,0x69,0x74,0x63,0x68,0x69,0x69,0x3a,0x0c,0x40,0x76,0x6f,0x6c,0x75,0x6d,0x65,0x69,0x55))
  TeleportPlayer(0,194,75,119,2,0)
  0()



EVENT   58
 PAGE   1
  250(bytes(0x04,0x08,0x6f,0x3a,0x0c,0x52,0x50,0x47,0x3a,0x3a,0x53,0x45,0x08,0x3a,0x0a,0x40,0x6e,0x61,0x6d,0x65,0x49,0x22,0x09,0x4d,0x6f,0x76,0x65,0x06,0x3a,0x06,0x45,0x54,0x3a,0x0b,0x40,0x70,0x69,0x74,0x63,0x68,0x69,0x69,0x3a,0x0c,0x40,0x76,0x6f,0x6c,0x75,0x6d,0x65,0x69,0x55))
  TeleportPlayer(0,194,75,119,2,0)
  0()



EVENT   59
 PAGE   1
  250(bytes(0x04,0x08,0x6f,0x3a,0x0c,0x52,0x50,0x47,0x3a,0x3a,0x53,0x45,0x08,0x3a,0x0a,0x40,0x6e,0x61,0x6d,0x65,0x49,0x22,0x09,0x4d,0x6f,0x76,0x65,0x06,0x3a,0x06,0x45,0x54,0x3a,0x0b,0x40,0x70,0x69,0x74,0x63,0x68,0x69,0x69,0x3a,0x0c,0x40,0x76,0x6f,0x6c,0x75,0x6d,0x65,0x69,0x55))
  TeleportPlayer(0,194,75,119,2,0)
  0()



EVENT   60
 PAGE   1
  250(bytes(0x04,0x08,0x6f,0x3a,0x0c,0x52,0x50,0x47,0x3a,0x3a,0x53,0x45,0x08,0x3a,0x0a,0x40,0x6e,0x61,0x6d,0x65,0x49,0x22,0x09,0x4d,0x6f,0x76,0x65,0x06,0x3a,0x06,0x45,0x54,0x3a,0x0b,0x40,0x70,0x69,0x74,0x63,0x68,0x69,0x69,0x3a,0x0c,0x40,0x76,0x6f,0x6c,0x75,0x6d,0x65,0x69,0x55))
  TeleportPlayer(0,194,75,119,2,0)
  0()



EVENT   61
 PAGE   1
  250(bytes(0x04,0x08,0x6f,0x3a,0x0c,0x52,0x50,0x47,0x3a,0x3a,0x53,0x45,0x08,0x3a,0x0a,0x40,0x6e,0x61,0x6d,0x65,0x49,0x22,0x09,0x4d,0x6f,0x76,0x65,0x06,0x3a,0x06,0x45,0x54,0x3a,0x0b,0x40,0x70,0x69,0x74,0x63,0x68,0x69,0x69,0x3a,0x0c,0x40,0x76,0x6f,0x6c,0x75,0x6d,0x65,0x69,0x55))
  TeleportPlayer(0,194,75,119,2,0)
  0()



EVENT   62
 PAGE   1
  ChangeVariable(1069,1069,0,0,1)
  If(0,4,0)
   ShowMessageFace("alice_fc5",0,0,2,1)
   ShowMessage("\\n<Alice>我々の世界と、ほとんど違いはないように見えるが……")
   ShowMessage("いや、どこか違和感があるな。")
   0()
  EndIf()
  If(0,5,0)
   ShowMessageFace("iriasu_fc4",2,0,2,2)
   ShowMessage("\\n<Ilias>私達の世界と、ほとんど変化はないようですが……")
   ShowMessage("どこか、違和感がありますね。")
   0()
  EndIf()
  If(0,6,0)
   ShowMessageFace("sonia_fc2",2,0,2,3)
   ShowMessage("\\n<Sonya>なんだか、家の造りが古臭くない？")
   ShowMessage("それに、村人の服装もセンスが古いような……")
   0()
  Else()
   ShowMessageFace("ruka_fc1",0,0,2,4)
   ShowMessage("\\n<Luka>なんだか、家の造りがかなり古臭くないかな。")
   ShowMessage("それに、村人の服装も昔っぽいような……")
   0()
  EndIf()
  If(0,4,0)
   ShowMessageFace("alice_fc5",2,0,2,5)
   ShowMessage("\\n<Alice>うむ……本で読んだところの、中世の生活様式に似ているな。")
   ShowMessage("すると、五百年ほど前になるのか……？")
   205(-1,bytes(0x04,0x08,0x6f,0x3a,0x13,0x52,0x50,0x47,0x3a,0x3a,0x4d,0x6f,0x76,0x65,0x52,0x6f,0x75,0x74,0x65,0x09,0x3a,0x0c,0x40,0x72,0x65,0x70,0x65,0x61,0x74,0x46,0x3a,0x0f,0x40,0x73,0x6b,0x69,0x70,0x70,0x61,0x62,0x6c,0x65,0x46,0x3a,0x0a,0x40,0x77,0x61,0x69,0x74,0x54,0x3a,0x0a,0x40,0x6c,0x69,0x73,0x74,0x5b,0x07,0x6f,0x3a,0x15,0x52,0x50,0x47,0x3a,0x3a,0x4d,0x6f,0x76,0x65,0x43,0x6f,0x6d,0x6d,0x61,0x6e,0x64,0x07,0x3a,0x0a,0x40,0x63,0x6f,0x64,0x65,0x69,0x16,0x3a,0x10,0x40,0x70,0x61,0x72,0x61,0x6d,0x65,0x74,0x65,0x72,0x73,0x5b,0x00,0x6f,0x3b,0x0a,0x07,0x3b,0x0b,0x69,0x00,0x3b,0x0c,0x5b,0x00))
   ShowMessageFace("alice_fc5",2,0,2,6)
   ShowMessage("\\n<Alice>そこの村人、今年は何年だ？")
   0()
  EndIf()
  If(0,5,0)
   ShowMessageFace("iriasu_fc4",0,0,2,7)
   ShowMessage("\\n<Ilias>記憶を遡ったところ……中世の人間が、こんな生活様式でしたね。")
   ShowMessage("すると五百年前くらいになるのでしょうか。")
   205(-1,bytes(0x04,0x08,0x6f,0x3a,0x13,0x52,0x50,0x47,0x3a,0x3a,0x4d,0x6f,0x76,0x65,0x52,0x6f,0x75,0x74,0x65,0x09,0x3a,0x0c,0x40,0x72,0x65,0x70,0x65,0x61,0x74,0x46,0x3a,0x0f,0x40,0x73,0x6b,0x69,0x70,0x70,0x61,0x62,0x6c,0x65,0x46,0x3a,0x0a,0x40,0x77,0x61,0x69,0x74,0x54,0x3a,0x0a,0x40,0x6c,0x69,0x73,0x74,0x5b,0x07,0x6f,0x3a,0x15,0x52,0x50,0x47,0x3a,0x3a,0x4d,0x6f,0x76,0x65,0x43,0x6f,0x6d,0x6d,0x61,0x6e,0x64,0x07,0x3a,0x0a,0x40,0x63,0x6f,0x64,0x65,0x69,0x16,0x3a,0x10,0x40,0x70,0x61,0x72,0x61,0x6d,0x65,0x74,0x65,0x72,0x73,0x5b,0x00,0x6f,0x3b,0x0a,0x07,0x3b,0x0b,0x69,0x00,0x3b,0x0c,0x5b,0x00))
   ShowMessageFace("iriasu_fc4",0,0,2,8)
   ShowMessage("\\n<Ilias>そこの村人……今年は何年でしょうか？")
   0()
  EndIf()
  ShowMessageFace("",0,0,2,9)
  ShowMessage("\\n<Youth>あんた達、山にでもこもってたのかい？")
  ShowMessage("今年はヨハネス歴965年だよ。")
  If(0,4,0)
   ShowMessageFace("alice_fc6",0,0,2,10)
   ShowMessage("\\n<Alice>965年だと……！？")
   ShowMessage("それはまさしく、勇者ハインリヒが旅をしていた時代ではないか！")
   0()
  EndIf()
  If(0,5,0)
   ShowMessageFace("iriasu_fc4",7,0,2,11)
   ShowMessage("\\n<Ilias>まさか、965年とは……")
   ShowMessage("勇者ハインリヒが、魔王退治の旅をしていた時代ではありませんか。")
   0()
  EndIf()
  ShowMessageFace("ruka_fc1",0,0,2,12)
  ShowMessage("\\n<Luka>966年に、英雄ハインリヒは魔王を打ち破った……")
  ShowMessage("だから、ここはその1年前……")
  ShowMessageFace("",0,0,2,13)
  ShowMessage("\\n<Youth>ははっ、夢でも見てるのかどうか分からないけど……")
  ShowMessage("魔王なら、今もバリバリ元気で魔王城にいるぜ。")
  ShowMessageFace("",0,0,2,14)
  ShowMessage("\\n<Youth>何人もの勇者が魔王城に旅立ったが、みな命を落とした……")
  ShowMessage("あんたの夢の通り、勇者ハインリヒが魔王を倒せればいいな。")
  ShowMessageFace("ruka_fc1",0,0,2,15)
  ShowMessage("\\n<Luka>勇者ハインリヒを、知っているんですか……？")
  ShowMessageFace("",0,0,2,16)
  ShowMessage("\\n<Youth>そりゃもちろん、知らない奴はいないよ。")
  ShowMessage("サバサで黒の三貴と渡り合ったりと大活躍、希望の星なんだからな。")
  ShowMessageFace("",0,0,2,17)
  ShowMessage("\\n<Youth>しかも、噂じゃこの村の近辺に――")
  205(-1,bytes(0x04,0x08,0x6f,0x3a,0x13,0x52,0x50,0x47,0x3a,0x3a,0x4d,0x6f,0x76,0x65,0x52,0x6f,0x75,0x74,0x65,0x09,0x3a,0x0c,0x40,0x72,0x65,0x70,0x65,0x61,0x74,0x46,0x3a,0x0f,0x40,0x73,0x6b,0x69,0x70,0x70,0x61,0x62,0x6c,0x65,0x46,0x3a,0x0a,0x40,0x77,0x61,0x69,0x74,0x54,0x3a,0x0a,0x40,0x6c,0x69,0x73,0x74,0x5b,0x07,0x6f,0x3a,0x15,0x52,0x50,0x47,0x3a,0x3a,0x4d,0x6f,0x76,0x65,0x43,0x6f,0x6d,0x6d,0x61,0x6e,0x64,0x07,0x3a,0x0a,0x40,0x63,0x6f,0x64,0x65,0x69,0x18,0x3a,0x10,0x40,0x70,0x61,0x72,0x61,0x6d,0x65,0x74,0x65,0x72,0x73,0x5b,0x00,0x6f,0x3b,0x0a,0x07,0x3b,0x0b,0x69,0x00,0x3b,0x0c,0x5b,0x00))
  205(74,bytes(0x04,0x08,0x6f,0x3a,0x13,0x52,0x50,0x47,0x3a,0x3a,0x4d,0x6f,0x76,0x65,0x52,0x6f,0x75,0x74,0x65,0x09,0x3a,0x0c,0x40,0x72,0x65,0x70,0x65,0x61,0x74,0x46,0x3a,0x0f,0x40,0x73,0x6b,0x69,0x70,0x70,0x61,0x62,0x6c,0x65,0x46,0x3a,0x0a,0x40,0x77,0x61,0x69,0x74,0x54,0x3a,0x0a,0x40,0x6c,0x69,0x73,0x74,0x5b,0x07,0x6f,0x3a,0x15,0x52,0x50,0x47,0x3a,0x3a,0x4d,0x6f,0x76,0x65,0x43,0x6f,0x6d,0x6d,0x61,0x6e,0x64,0x07,0x3a,0x0a,0x40,0x63,0x6f,0x64,0x65,0x69,0x18,0x3a,0x10,0x40,0x70,0x61,0x72,0x61,0x6d,0x65,0x74,0x65,0x72,0x73,0x5b,0x00,0x6f,0x3b,0x0a,0x07,0x3b,0x0b,0x69,0x00,0x3b,0x0c,0x5b,0x00))
  241(bytes(0x04,0x08,0x6f,0x3a,0x0d,0x52,0x50,0x47,0x3a,0x3a,0x42,0x47,0x4d,0x08,0x3a,0x0a,0x40,0x6e,0x61,0x6d,0x65,0x49,0x22,0x0a,0x6b,0x69,0x6b,0x69,0x31,0x06,0x3a,0x06,0x45,0x54,0x3a,0x0c,0x40,0x76,0x6f,0x6c,0x75,0x6d,0x65,0x69,0x69,0x3a,0x0b,0x40,0x70,0x69,0x74,0x63,0x68,0x69,0x69))
  ShowMessageFace("",0,0,2,18)
  ShowMessage("\\n<Man>よ、妖魔だー！！")
  ShowMessageFace("",0,0,2,19)
  ShowMessage("\\n<女>きゃーっ！！")
  ShowMessageFace("",0,0,2,20)
  ShowMessage("\\n<Guard A>市民の皆さん、避難して！")
  ShowMessageFace("",0,0,2,21)
  ShowMessage("\\n<Guard B>北だ、急げー！！")
  ShowMessageFace("ruka_fc1",0,0,2,22)
  ShowMessage("\\n<Luka>もしかして……魔王軍の襲撃！？")
  ShowMessageFace("",0,0,2,23)
  ShowMessage("\\n<Youth>軍団が攻めてきた感じじゃない……")
  ShowMessage("少数の妖魔が侵入してきたんだ！")
  ShowMessageFace("",0,0,2,24)
  ShowMessage("\\n<Youth>少数で行動する妖魔ほど、強くて厄介だ……")
  ShowMessage("あんた達も、今は村の北区には行かない方がいいぞ！")
  If(0,4,0)
   ShowMessageFace("alice_fc5",2,0,2,25)
   ShowMessage("\\n<Alice>ところが、そうは行かん！")
   ShowMessage("並行世界とはいえ、妖魔の襲撃を放置はできんからな！")
   0()
  EndIf()
  If(0,5,0)
   ShowMessageFace("iriasu_fc4",7,0,2,26)
   ShowMessage("\\n<Ilias>そんな訳にはいきません……")
   ShowMessage("この私が、魔物に襲われる民を放置しておくとでも？")
   0()
  EndIf()
  If(4,520,0)
   ShowMessageFace("lazarus3_fc1",1,0,2,27)
   ShowMessage("\\n<Lazarus>やれやれ、冒険してた頃を思い出すな。")
   ShowMessage("こういう場合、決まってマルケルスはこう言うんだよ……")
   0()
  EndIf()
  ShowMessageFace("ruka_fc1",0,0,2,28)
  ShowMessage("\\n<Luka>行こう、村人を守るんだ！")
  If(4,203,0)
   ShowMessageFace("tatunoko_k_fc1",0,0,2,29)
   ShowMessage("\\n<Tatsuko>人々を守るのが、海兵の職務なのです！")
   0()
  EndIf()
  EndEventProcessing()
  0()
 PAGE   2
  // condition: variable 1069 >= 1
  0()
 PAGE   3
  // condition: variable 1069 >= 5
  ChangeSelfSwitch("B",0)
  If(0,4,0)
   ShowMessageFace("alice_fc5",0,0,2,1)
   ShowMessage("\\n<Alice>この村で船を入手し、北上してヘルゴンド大陸へ……")
   ShowMessage("大陸をぐるりと取り巻く山脈に、内陸へ繋がる洞窟があるはずだ。")
   0()
  EndIf()
  If(0,5,0)
   ShowMessageFace("iriasu_fc4",0,0,2,2)
   ShowMessage("\\n<Ilias>この村で船を入手し、北上してヘルゴンド大陸へ……")
   ShowMessage("大陸をぐるりと取り巻く山脈に、内陸へ繋がる洞窟があるのです。")
   0()
  EndIf()
  If(4,45,0)
   ShowMessageFace("alicetromeria_fc1",4,0,2,3)
   ShowMessage("\\n<Alicetroemeria>うふふっ……")
   ShowMessage("楽しい旅路になりそうですわね。")
   0()
  EndIf()
  ShowMessageFace("ruka_fc1",0,0,2,4)
  ShowMessage("\\n<Luka>この村に、外海でも渡れる貿易船があったよね。")
  ShowMessage("貸してもらえるよう、なんとか頼んでみよう。")
  0()
 PAGE   4
  // condition: self-switch B is ON
  0()



EVENT   63
 PAGE   1
  250(bytes(0x04,0x08,0x6f,0x3a,0x0c,0x52,0x50,0x47,0x3a,0x3a,0x53,0x45,0x08,0x3a,0x0a,0x40,0x6e,0x61,0x6d,0x65,0x49,0x22,0x0a,0x4f,0x70,0x65,0x6e,0x31,0x06,0x3a,0x06,0x45,0x54,0x3a,0x0b,0x40,0x70,0x69,0x74,0x63,0x68,0x69,0x69,0x3a,0x0c,0x40,0x76,0x6f,0x6c,0x75,0x6d,0x65,0x69,0x55))
  205(0,bytes(0x04,0x08,0x6f,0x3a,0x13,0x52,0x50,0x47,0x3a,0x3a,0x4d,0x6f,0x76,0x65,0x52,0x6f,0x75,0x74,0x65,0x09,0x3a,0x0c,0x40,0x72,0x65,0x70,0x65,0x61,0x74,0x46,0x3a,0x0f,0x40,0x73,0x6b,0x69,0x70,0x70,0x61,0x62,0x6c,0x65,0x46,0x3a,0x0a,0x40,0x77,0x61,0x69,0x74,0x54,0x3a,0x0a,0x40,0x6c,0x69,0x73,0x74,0x5b,0x0c,0x6f,0x3a,0x15,0x52,0x50,0x47,0x3a,0x3a,0x4d,0x6f,0x76,0x65,0x43,0x6f,0x6d,0x6d,0x61,0x6e,0x64,0x07,0x3a,0x0a,0x40,0x63,0x6f,0x64,0x65,0x69,0x16,0x3a,0x10,0x40,0x70,0x61,0x72,0x61,0x6d,0x65,0x74,0x65,0x72,0x73,0x5b,0x00,0x6f,0x3b,0x0a,0x07,0x3b,0x0b,0x69,0x14,0x3b,0x0c,0x5b,0x06,0x69,0x08,0x6f,0x3b,0x0a,0x07,0x3b,0x0b,0x69,0x17,0x3b,0x0c,0x5b,0x00,0x6f,0x3b,0x0a,0x07,0x3b,0x0b,0x69,0x14,0x3b,0x0c,0x5b,0x06,0x69,0x08,0x6f,0x3b,0x0a,0x07,0x3b,0x0b,0x69,0x18,0x3b,0x0c,0x5b,0x00,0x6f,0x3b,0x0a,0x07,0x3b,0x0b,0x69,0x2a,0x3b,0x0c,0x5b,0x00,0x6f,0x3b,0x0a,0x07,0x3b,0x0b,0x69,0x00,0x3b,0x0c,0x5b,0x00))
  205(-1,bytes(0x04,0x08,0x6f,0x3a,0x13,0x52,0x50,0x47,0x3a,0x3a,0x4d,0x6f,0x76,0x65,0x52,0x6f,0x75,0x74,0x65,0x09,0x3a,0x0c,0x40,0x72,0x65,0x70,0x65,0x61,0x74,0x46,0x3a,0x0f,0x40,0x73,0x6b,0x69,0x70,0x70,0x61,0x62,0x6c,0x65,0x54,0x3a,0x0a,0x40,0x77,0x61,0x69,0x74,0x54,0x3a,0x0a,0x40,0x6c,0x69,0x73,0x74,0x5b,0x07,0x6f,0x3a,0x15,0x52,0x50,0x47,0x3a,0x3a,0x4d,0x6f,0x76,0x65,0x43,0x6f,0x6d,0x6d,0x61,0x6e,0x64,0x07,0x3a,0x0a,0x40,0x63,0x6f,0x64,0x65,0x69,0x11,0x3a,0x10,0x40,0x70,0x61,0x72,0x61,0x6d,0x65,0x74,0x65,0x72,0x73,0x5b,0x00,0x6f,0x3b,0x0a,0x07,0x3b,0x0b,0x69,0x00,0x3b,0x0c,0x5b,0x00))
  250(bytes(0x04,0x08,0x6f,0x3a,0x0c,0x52,0x50,0x47,0x3a,0x3a,0x53,0x45,0x08,0x3a,0x0a,0x40,0x6e,0x61,0x6d,0x65,0x49,0x22,0x09,0x4d,0x6f,0x76,0x65,0x06,0x3a,0x06,0x45,0x54,0x3a,0x0b,0x40,0x70,0x69,0x74,0x63,0x68,0x69,0x69,0x3a,0x0c,0x40,0x76,0x6f,0x6c,0x75,0x6d,0x65,0x69,0x55))
  TeleportPlayer(0,515,60,71,0,0)
  0()



EVENT   64
 PAGE   1
  If(1,1069,0,2,2)
   ShowMessageFace("",0,0,2,1)
   ShowMessage("\\n<勇者>大変な騒ぎになっているな……")
   ShowMessage("えっ、私？　妖魔に勝てるわけがなかろう！")
   EndEventProcessing()
   0()
  EndIf()
  If(1,1069,0,3,1)
   ShowMessageFace("",0,0,2,2)
   ShowMessage("\\n<勇者>私は諸国を旅する勇者だ！")
   ShowMessage("……が、ハインリヒと比べるとなれば分が悪いな。")
   EndEventProcessing()
   0()
  EndIf()
  0()



EVENT   65
 PAGE   1
  ShowMessageFace("",0,0,2,1)
  ShowMessage("\\n<Soldier>相手は悪名高きクィーンサキュバスです。")
  ShowMessage("これまで、どれだけの村を堕落させた事か……")
  0()
 PAGE   2
  // condition: variable 1069 >= 3
  0()



EVENT   66
 PAGE   1
  ShowMessageFace("",0,0,2,1)
  ShowMessage("\\n<Soldier>クィーンサキュバスはこの建物に逃げ込みました。")
  ShowMessage("この建物の地下は、かつて黒魔術に用いられていたのですが……")
  0()
 PAGE   2
  // condition: variable 1069 >= 3
  0()



EVENT   67
 PAGE   1
  ShowMessageFace("",0,0,2,1)
  ShowMessage("\\n<Soldier>クィーンサキュバスなんて超大物が、衛兵相手に本気で逃げるはずがない。")
  ShowMessage("明らかに遊んでるんだよ……")
  0()
 PAGE   2
  // condition: variable 1069 >= 3
  0()



EVENT   68
 PAGE   1
  ShowMessageFace("",0,0,2,1)
  ShowMessage("\\n<Soldier>追い込んだって言わないよな……")
  ShowMessage("絶対に誘ってるんだぜ、これ……")
  0()
 PAGE   2
  // condition: variable 1069 >= 3
  0()



EVENT   69
 PAGE   1
  ShowMessageFace("",0,0,2,1)
  ShowMessage("\\n<Soldier>クィーンサキュバスと戦えるほどの奴なんて、いるはずないだろう。")
  ShowMessage("いや、噂の勇者ハインリヒなら、もしかしたら……")
  0()
 PAGE   2
  // condition: variable 1069 >= 3
  0()



EVENT   70
 PAGE   1
  ShowMessageFace("",0,0,2,1)
  ShowMessage("\\n<Soldier>ああ、誘われるがままフラフラと入りたい……")
  ShowMessage("思いっきり搾られてしまいたい……")
  0()
 PAGE   2
  // condition: variable 1069 >= 3
  0()



EVENT   71
 PAGE   1
  ShowMessageFace("",0,0,2,1)
  ShowMessage("\\n<Officer>ややっ、あなたは勇者ハインリヒ様！")
  ShowMessage("近くまで来られているという噂、本当でしたな！")
  ShowMessageFace("",0,0,2,2)
  ShowMessage("\\n<Officer>この建物に追い込んだクィーンサキュバスの討伐を願えませんか？")
  ShowMessage("いらして早々で恐縮ですが、我々には到底手に負えない相手でして……")
  ShowChoices(strings("このハインリヒに任せろ","僕はハインリヒじゃない"),0)
  IfPlayerPicksChoice(0,null)
   ShowMessageFace("ruka_fc1",0,0,2,3)
   ShowMessage("\\n<Luka>任せてくれ！　僕は勇者ハインリヒだ！")
   If(0,6,0)
    ShowMessageFace("sonia_fc3",2,0,2,4)
    ShowMessage("\\n<Sonya>違うでしょ！")
    0()
   Else()
    If(0,4,0)
     ShowMessageFace("alice_fc5",5,0,2,5)
     ShowMessage("\\n<Alice>いや、違うだろう……")
     ShowMessageFace("alice_fc5",2,0,2,6)
     ShowMessage("\\n<Alice>……とは言え、クィーンサキュバスなど放置できん。")
     ShowMessage("我々の手で、退治せねばならんな。")
     0()
    EndIf()
    If(0,5,0)
     ShowMessageFace("iriasu_fc4",2,0,2,7)
     ShowMessage("\\n<Ilias>違いますよ……")
     ShowMessageFace("iriasu_fc4",7,0,2,8)
     ShowMessage("\\n<Ilias>とは言え、クィーンサキュバスは放置できません。")
     ShowMessage("我々で確実に始末しましょう。")
     0()
    EndIf()
    0()
   EndIf()
   0()
  IfPlayerPicksChoice(1,null)
   ShowMessageFace("ruka_fc1",0,0,2,9)
   ShowMessage("\\n<Luka>いや、僕はハインリヒじゃないんだけど……")
   ShowMessageFace("",0,0,2,10)
   ShowMessage("\\n<Soldier長>何をおっしゃいます、噂通りのお姿ではありませんか！")
   ShowMessage("隙のない身のこなし、涼やかながら闘志を秘めた眼光……")
   ShowMessageFace("ruka_fc1",0,0,2,11)
   ShowMessage("\\n<Luka>そ、そうかな……")
   ShowMessage("えへっ、えへへへへっ……")
   If(0,4,0)
    ShowMessageFace("alice_fc6",1,0,2,12)
    ShowMessage("\\n<Alice>照れてる場合か！")
    ShowMessageFace("alice_fc5",2,0,2,13)
    ShowMessage("\\n<Alice>……とにかく、クィーンサキュバスなど放置できん。")
    ShowMessage("我々の手で、退治せねばならんな。")
    0()
   EndIf()
   If(0,5,0)
    ShowMessageFace("iriasu_fc5",0,0,2,14)
    ShowMessage("\\n<Ilias>照れている場合ですか！")
    ShowMessageFace("iriasu_fc4",7,0,2,15)
    ShowMessage("\\n<Ilias>とにかく、クィーンサキュバスは放置できません。")
    ShowMessage("我々で確実に始末しましょう。")
    0()
   EndIf()
   0()
  404()
  If(4,287,0)
   ShowMessageFace("succubus_fc1",3,0,2,16)
   ShowMessage("\\n<Succubus>敵はこの時代のクィーンサキュバス……")
   ShowMessage("恐ろしい相手ですね。")
   0()
  EndIf()
  If(4,203,0)
   ShowMessageFace("tatunoko_k_fc1",1,0,2,17)
   ShowMessage("\\n<Tatsuko>さあ、行くのです！")
   0()
  EndIf()
  ShowMessageFace("",0,0,2,18)
  ShowMessage("\\n<Officer>おお、それではお任せしました！")
  ShowMessage("どうか、ご武運のあらん事を！")
  205(0,bytes(0x04,0x08,0x6f,0x3a,0x13,0x52,0x50,0x47,0x3a,0x3a,0x4d,0x6f,0x76,0x65,0x52,0x6f,0x75,0x74,0x65,0x09,0x3a,0x0c,0x40,0x72,0x65,0x70,0x65,0x61,0x74,0x46,0x3a,0x0f,0x40,0x73,0x6b,0x69,0x70,0x70,0x61,0x62,0x6c,0x65,0x46,0x3a,0x0a,0x40,0x77,0x61,0x69,0x74,0x54,0x3a,0x0a,0x40,0x6c,0x69,0x73,0x74,0x5b,0x09,0x6f,0x3a,0x15,0x52,0x50,0x47,0x3a,0x3a,0x4d,0x6f,0x76,0x65,0x43,0x6f,0x6d,0x6d,0x61,0x6e,0x64,0x07,0x3a,0x0a,0x40,0x63,0x6f,0x64,0x65,0x69,0x2a,0x3a,0x10,0x40,0x70,0x61,0x72,0x61,0x6d,0x65,0x74,0x65,0x72,0x73,0x5b,0x00,0x6f,0x3b,0x0a,0x07,0x3b,0x0b,0x69,0x08,0x3b,0x0c,0x5b,0x00,0x6f,0x3b,0x0a,0x07,0x3b,0x0b,0x69,0x16,0x3b,0x0c,0x5b,0x00,0x6f,0x3b,0x0a,0x07,0x3b,0x0b,0x69,0x00,0x3b,0x0c,0x5b,0x00))
  ChangeVariable(1069,1069,0,0,2)
  EndEventProcessing()
  0()
 PAGE   2
  // condition: variable 1069 >= 2
  0()



EVENT   72
 PAGE   1
  If(1,1069,0,2,2)
   ShowMessageFace("",0,0,2,1)
   ShowMessage("\\n<船乗り>俺は船番だ、逃げるわけにはいかないんだよ！")
   ShowMessage("……まあ、妖魔がわざわざ船なんて欲しがらないだろうけど。")
   EndEventProcessing()
   0()
  EndIf()
  If(1,1069,0,3,1)
   If(1,1069,0,4,2)
    ShowMessageFace("",0,0,2,2)
    ShowMessage("\\n<船乗り>この船は、村で最大の貿易船。")
    ShowMessage("外海だって航行できる、特注の船なんだぜ。")
    EndEventProcessing()
    0()
   EndIf()
   0()
  EndIf()
  If(1,1069,0,5,1)
   If(1,1069,0,7,2)
    ShowMessageFace("",0,0,2,3)
    ShowMessage("\\n<船乗り>この船は、村で最大の貿易船。")
    ShowMessage("外海だって航行できる、特注の船なんだぜ。")
    ShowMessageFace("",0,0,2,4)
    ShowMessage("\\n<船乗り>えっ？　貸してほしい……？")
    ShowMessage("俺の独断じゃ決められないぜ、村長に相談してくれ。")
    If(0,4,0)
     ShowMessageFace("alice_fc5",0,0,2,5)
     ShowMessage("\\n<Alice>仕方がない、村長に頼みに行くか。")
     ShowMessage("村長の家は、村の北部だったな……")
     0()
    EndIf()
    If(0,5,0)
     ShowMessageFace("iriasu_fc4",2,0,2,6)
     ShowMessage("\\n<Ilias>仕方ありません、村長に頼みに行きましょう。")
     ShowMessage("村長の家は、村の北部でしたね……")
     0()
    EndIf()
    EndEventProcessing()
    0()
   EndIf()
   0()
  EndIf()
  If(1,1069,0,8,1)
   ShowMessageFace("",0,0,2,7)
   ShowMessage("\\n<船乗り>この船は、村で最大の貿易船。")
   ShowMessage("外海だって航行できる、特注の船なんだぜ。")
   ShowMessageFace("",0,0,2,8)
   ShowMessage("\\n<船乗り>この船に乗りたいんだろ、すでに村長から連絡も来てるさ。")
   ShowMessage("さあ、乗ってくれ！")
   ShowChoices(strings("出航する","やめておく"),2)
   IfPlayerPicksChoice(0,null)
    221()
    250(bytes(0x04,0x08,0x6f,0x3a,0x0c,0x52,0x50,0x47,0x3a,0x3a,0x53,0x45,0x08,0x3a,0x0a,0x40,0x6e,0x61,0x6d,0x65,0x49,0x22,0x0b,0x57,0x61,0x74,0x65,0x72,0x31,0x06,0x3a,0x06,0x45,0x54,0x3a,0x0b,0x40,0x70,0x69,0x74,0x63,0x68,0x69,0x69,0x3a,0x0c,0x40,0x76,0x6f,0x6c,0x75,0x6d,0x65,0x69,0x55))
    Wait(60)
    355("forced_get_on_ship")
    TeleportPlayer(0,194,74,118,8,2)
    222()
    241(bytes(0x04,0x08,0x6f,0x3a,0x0d,0x52,0x50,0x47,0x3a,0x3a,0x42,0x47,0x4d,0x08,0x3a,0x0a,0x40,0x6e,0x61,0x6d,0x65,0x49,0x22,0x08,0x75,0x6d,0x69,0x06,0x3a,0x06,0x45,0x54,0x3a,0x0c,0x40,0x76,0x6f,0x6c,0x75,0x6d,0x65,0x69,0x69,0x3a,0x0b,0x40,0x70,0x69,0x74,0x63,0x68,0x69,0x69))
    If(2,"A",1)
     ChangeSelfSwitch("A",0)
     If(0,4,0)
      ShowMessageFace("alice_fc5",2,0,2,9)
      ShowMessage("\\n<Alice>このまま北上すれば、ヘルゴンド大陸にはすぐ着く。")
      ShowMessage("そこから岩壁に沿って、内陸への洞窟を探せ。")
      0()
     EndIf()
     If(0,5,0)
      ShowMessageFace("iriasu_fc4",0,0,2,10)
      ShowMessage("\\n<Ilias>このまま北上すれば、ヘルゴンド大陸にはすぐ着きます。")
      ShowMessage("そこから岩壁に沿って、内陸への洞窟を探しなさい。")
      0()
     EndIf()
     0()
    EndIf()
    EndEventProcessing()
    0()
   IfPlayerPicksChoice(1,null)
    EndEventProcessing()
    0()
   404()
   0()
  EndIf()
  0()



EVENT   73
 PAGE   1
  0()



EVENT   74
 PAGE   1
  If(1,1069,0,2,2)
   ShowMessageFace("",0,0,2,1)
   ShowMessage("\\n<Youth>村の案内は、後にしてくれよ。")
   ShowMessage("今は、妖魔が出て行くまで動かない方が良さそうだぜ。")
   EndEventProcessing()
   0()
  EndIf()
  If(1,1069,0,3,1)
   ShowMessageFace("",0,0,2,2)
   ShowMessage("\\n<Youth>すごいじゃないか、あんた達！")
   ShowMessage("さあ、どこに案内してほしい？")
   355("unlimited_choices(11, [\"Inn\",")
   655("\"Equipment Shop\",\"Accessory Shop\",")
   655("\"Item Shop\",\"Village Chief's House\",\"Nowhere\"])")
   If(1,11,0,0,0)
    TeleportPlayer(0,514,26,42,2,0)
    EndEventProcessing()
    0()
   EndIf()
   If(1,11,0,1,0)
    TeleportPlayer(0,514,44,23,2,0)
    EndEventProcessing()
    0()
   EndIf()
   If(1,11,0,2,0)
    TeleportPlayer(0,514,35,45,2,0)
    EndEventProcessing()
    0()
   EndIf()
   If(1,11,0,3,0)
    TeleportPlayer(0,514,24,52,2,0)
    EndEventProcessing()
    0()
   EndIf()
   If(1,11,0,4,0)
    TeleportPlayer(0,514,23,7,2,0)
    EndEventProcessing()
    0()
   EndIf()
   If(1,11,0,5,0)
    EndEventProcessing()
    0()
   EndIf()
   EndEventProcessing()
   0()
  EndIf()
  0()



EVENT   75
 PAGE   1
  // condition: variable 1069 >= 2
  ShowMessageFace("",0,0,2,1)
  ShowMessage("\\n<Officer>クィーンサキュバスの討伐、お任せしました！")
  ShowMessage("どうか、ご武運のあらん事を！")
  0()
 PAGE   2
  // condition: variable 1069 >= 3
  0()



EVENT   76
 PAGE   1
  // condition: variable 1069 >= 3
  ShowMessageFace("",0,0,2,1)
  ShowMessage("\\n<村長の秘書>こちらは、村長の家でございます。")
  ShowMessage("常に開かれておりますので、ご自由にお立ち寄りを。")
  0()



EVENT   77
 PAGE   1
  // condition: variable 1069 >= 3
  ShowMessageFace("",0,0,2,1)
  ShowMessage("\\n<勇者>この村は、「サキュバスの村」という名だ。")
  ShowMessage("色々と期待する旅人も多いのだが……")
  ShowMessageFace("",0,0,2,2)
  ShowMessage("\\n<勇者>単に淫魔の伝承が残っているだけで、ごく普通の村だよ。")
  ShowMessage("ただちょっと、若くて美人な娘さんが多い気はするがな。")
  355("actor_label_jump")
  EndEventProcessing()
  DefineLabel("287")
  ShowMessageFace("succubus_fc1",0,0,2,3)
  ShowMessage("\\n<Succubus>この時代も、村の実態は隠されていたのですね……")
  EndEventProcessing()
  0()



EVENT   78
 PAGE   1
  // condition: variable 1069 >= 3
  ShowMessageFace("",0,0,2,1)
  ShowMessage("\\n<Guard>まさか、クィーンサキュバスの侵入があろうとは……")
  ShowMessage("犠牲者が一人も出なかったのは、あなたのおかげです。")
  0()



EVENT   79
 PAGE   1
  250(bytes(0x04,0x08,0x6f,0x3a,0x0c,0x52,0x50,0x47,0x3a,0x3a,0x53,0x45,0x08,0x3a,0x0a,0x40,0x6e,0x61,0x6d,0x65,0x49,0x22,0x09,0x4d,0x6f,0x76,0x65,0x06,0x3a,0x06,0x45,0x54,0x3a,0x0b,0x40,0x70,0x69,0x74,0x63,0x68,0x69,0x69,0x3a,0x0c,0x40,0x76,0x6f,0x6c,0x75,0x6d,0x65,0x69,0x55))
  TeleportPlayer(0,194,75,119,0,0)
  0()



EVENT   80
 PAGE   1
  // condition: variable 1069 >= 3
  ShowMessageFace("",0,0,2,1)
  ShowMessage("\\n<Guard>クィーンサキュバスのリリスとリリムに捕まれば悲惨ですよ。")
  ShowMessage("二人の間に挟まれ、涸れ果てるまでヌチュヌチョされるとか……")
  ShowMessageFace("",0,0,2,2)
  ShowMessage("\\n<Guard>ああ、怖い……サキュバス怖い。")
  355("actor_label_jump")
  EndEventProcessing()
  DefineLabel("341")
  ShowMessageFace("lilith_fc1",0,0,2,3)
  ShowMessage("\\n<リリス＆リリム>そんなに、してほしいの……？")
  ShowMessage("今は忙しいから、また今度ね。")
  ShowMessageFace("",0,0,2,4)
  ShowMessage("\\n<Guard>そ、そんなぁ……")
  EndEventProcessing()
  0()



EVENT   81
 PAGE   1
  // condition: variable 1069 >= 3
  ShowMessageFace("",0,0,2,1)
  ShowMessage("\\n<Guard>現在、警戒中です！")
  ShowMessage("……が、強力な妖魔を前にどれだけ戦えるものか。")
  ShowMessageFace("",0,0,2,2)
  ShowMessage("\\n<Guard>たまたま村にあなたやハインリヒがいて、本当に助かりました。")
  ShowMessage("ありがとうございます。")
  355("actor_label_jump")
  EndEventProcessing()
  DefineLabel("171")
  ShowMessageFace("lizardboss_fc1",3,0,2,3)
  ShowMessage("\\n<Miranda>頼りない話だねぇ……")
  ShowMessage("あんた達だけで、ちゃんと村を守れるのかい？")
  EndEventProcessing()
  DefineLabel("538")
  ShowMessageFace("heinrich_fc1",7,0,2,4)
  ShowMessage("\\n<Heinrich>僕は何もしていないんだけどね……")
  EndEventProcessing()
  0()



EVENT   82
 PAGE   1
  // condition: variable 1069 >= 3
  ShowMessageFace("",0,0,2,1)
  ShowMessage("\\n<Guard>この村は、魔王城のあるヘルゴンド大陸に最も近いですが……")
  ShowMessage("重要な施設も何もないため、都会に比べて平和だったのです。")
  ShowMessageFace("",0,0,2,2)
  ShowMessage("\\n<Guard>しかし、これからは気が抜けませんね……")
  ShowMessage("今後はますます警備を厳重にしないと。")
  355("actor_label_jump")
  EndEventProcessing()
  DefineLabel("45")
  ShowMessageFace("alicetromeria_fc1",4,0,2,3)
  ShowMessage("\\n<Alicetroemeria>もう、ここを魔物が襲う事はありませんわ……")
  ShowMessage("不可侵の約定がありますもの。")
  EndEventProcessing()
  0()



EVENT   83
 PAGE   1
  If(1,1069,0,2,2)
   ShowMessageFace("",0,0,2,1)
   ShowMessage("\\n<村娘>妖魔が襲撃なんて……ああ、怖い……")
   EndEventProcessing()
   0()
  EndIf()
  If(1,1069,0,3,1)
   ShowMessageFace("",0,0,2,2)
   ShowMessage("\\n<村娘>しかし妙ですね、協定によりこの村への侵攻は……")
   ShowMessage("いえいえ、こちらの話です。")
   355("actor_label_jump")
   EndEventProcessing()
   DefineLabel("45")
   ShowMessageFace("alicetromeria_fc1",4,0,2,3)
   ShowMessage("\\n<Alicetroemeria>リリスもリリムも……")
   ShowMessage("まったく、困ったいたずら者ですわね。")
   EndEventProcessing()
   DefineLabel("341")
   ShowMessageFace("lilith_fc1",0,0,2,4)
   ShowMessage("\\n<リリス＆リリム>私達の独断よ……")
   ShowMessage("黒のアリス様は、笑ってお許し下さるわ。")
   EndEventProcessing()
   0()
  EndIf()
  0()



EVENT   84
 PAGE   1
  // condition: variable 1069 >= 3
  ShowMessageFace("",0,0,2,1)
  ShowMessage("\\n<Young Girl>お母さん、なんで妖魔が攻めてきたの？")
  ShowMessage("この村の女性はほとんどサキュバスだから、攻められないんじゃなかったの？")
  ShowMessageFace("",0,0,2,2)
  ShowMessage("\\n<若い母親>この子ったら、そんな話を外では……")
  ShowMessage("……いえいえ勇者様、この子は絵本の空想物語の話をしているんですよ。")
  355("actor_label_jump")
  EndEventProcessing()
  DefineLabel("284")
  ShowMessageFace("minccubus_fc1",1,0,2,3)
  ShowMessage("\\n<セーラ>二人とも、サキュバスでしょ。")
  ShowMessage("あたし、分かるもんね～♪")
  EndEventProcessing()
  DefineLabel("341")
  ShowMessageFace("lilith_fc1",0,0,2,4)
  ShowMessage("\\n<リリス＆リリム>攻めたわけじゃないわ……")
  ShowMessage("村の男を、何人かつまみに来ただけよ。")
  EndEventProcessing()
  DefineLabel("538")
  ShowMessageFace("heinrich_fc1",7,0,2,5)
  ShowMessage("\\n<Heinrich>なんだ、絵本の話か……")
  EndEventProcessing()
  0()



EVENT   85
 PAGE   1
  // condition: variable 1069 >= 3
  ShowMessageFace("",0,0,2,1)
  ShowMessage("\\n<Young Girl>お母さん、なんで妖魔が攻めてきたの？")
  ShowMessage("この村の女性はほとんどサキュバスだから、攻められないんじゃなかったの？")
  ShowMessageFace("",0,0,2,2)
  ShowMessage("\\n<若い母親>この子ったら、そんな話を外では……")
  ShowMessage("……いえいえ勇者様、この子は絵本の空想物語の話をしているんですよ。")
  355("actor_label_jump")
  EndEventProcessing()
  DefineLabel("284")
  ShowMessageFace("minccubus_fc1",1,0,2,3)
  ShowMessage("\\n<セーラ>二人とも、サキュバスでしょ。")
  ShowMessage("あたし、分かるもんね～♪")
  EndEventProcessing()
  DefineLabel("341")
  ShowMessageFace("lilith_fc1",0,0,2,4)
  ShowMessage("\\n<リリス＆リリム>攻めたわけじゃないわ……")
  ShowMessage("村の男を、何人かつまみに来ただけよ。")
  EndEventProcessing()
  DefineLabel("538")
  ShowMessageFace("heinrich_fc1",7,0,2,5)
  ShowMessage("\\n<Heinrich>なんだ、絵本の話か……")
  EndEventProcessing()
  0()



EVENT   86
 PAGE   1
  // condition: variable 1069 >= 3
  ShowMessageFace("",0,0,2,1)
  ShowMessage("\\n<Old Woman>もはや古来からの約定も無視か……")
  ShowMessage("黒のアリスは、つくづく野蛮だねぇ。")
  355("actor_label_jump")
  EndEventProcessing()
  DefineLabel("45")
  ShowMessageFace("alicetromeria_fc1",4,0,2,2)
  ShowMessage("\\n<Alicetroemeria>これは失礼、いたずら者のしでかした事……")
  ShowMessage("遊びのルールは、もう破りませんわ。")
  EndEventProcessing()
  0()



EVENT   87
 PAGE   1
  // condition: variable 1069 >= 3
  ShowMessageFace("",0,0,2,1)
  ShowMessage("\\n<Youth>クィーンサキュバスを追い払うなんて、なんとお強い……")
  ShowMessage("勇者ハインリヒに続いて、期待の新星の出現ですね！")
  0()



EVENT   88
 PAGE   1
  // condition: variable 1069 >= 3
  ShowMessageFace("",0,0,2,1)
  ShowMessage("\\n<Young Boy>お兄ちゃんとハインリヒ、どっちが強いの？")
  355("actor_label_jump")
  EndEventProcessing()
  DefineLabel("538")
  ShowMessageFace("heinrich_fc1",7,0,2,2)
  ShowMessage("\\n<Heinrich>勇者同士は、強さを競ったりしないのさ。")
  EndEventProcessing()
  0()



EVENT   89
 PAGE   1
  // condition: variable 1069 >= 3
  ShowMessageFace("",0,0,2,1)
  ShowMessage("\\n<Young Girl>お兄ちゃんとハインリヒ、どっちが将来有望なの？")
  355("actor_label_jump")
  EndEventProcessing()
  DefineLabel("538")
  ShowMessageFace("heinrich_fc1",2,0,2,2)
  ShowMessage("\\n<Heinrich>どうだろうね……")
  EndEventProcessing()
  0()



EVENT   90
 PAGE   1
  // condition: variable 1069 >= 3
  ShowMessageFace("",0,0,2,1)
  ShowMessage("\\n<若い娘>まさか、この村に妖魔が侵入してくるなんて……")
  ShowMessage("つくづく、時代は変わりましたね。")
  0()



EVENT   91
 PAGE   1
  // condition: variable 1069 >= 3
  ShowMessageFace("",0,0,2,1)
  ShowMessage("\\n<若い娘>うふふっ……")
  ShowMessageFace("",0,0,2,2)
  ShowMessage("\\n<若い男>こ、こんな所で……あぁぁ……")
  355("actor_label_jump")
  EndEventProcessing()
  DefineLabel("281")
  ShowMessageFace("succubuses_fc1",0,0,2,3)
  ShowMessage("\\n<ハーレム>あら……お食事中だった？")
  EndEventProcessing()
  DefineLabel("283")
  ShowMessageFace("maccubus_fc1",1,0,2,4)
  ShowMessage("\\n<メリッサ>食事の邪魔をしちゃったわね……")
  EndEventProcessing()
  0()



EVENT   92
 PAGE   1
  // condition: variable 1069 >= 3
  ShowMessageFace("",0,0,2,1)
  ShowMessage("\\n<若い娘>うふふっ……")
  ShowMessageFace("",0,0,2,2)
  ShowMessage("\\n<若い男>こ、こんな所で……あぁぁ……")
  355("actor_label_jump")
  EndEventProcessing()
  DefineLabel("281")
  ShowMessageFace("succubuses_fc1",0,0,2,3)
  ShowMessage("\\n<ハーレム>あら……お食事中だった？")
  EndEventProcessing()
  DefineLabel("283")
  ShowMessageFace("maccubus_fc1",1,0,2,4)
  ShowMessage("\\n<メリッサ>食事の邪魔をしちゃったわね……")
  EndEventProcessing()
  0()



EVENT   93
 PAGE   1
  // condition: variable 1069 >= 3
  ShowMessageFace("",0,0,2,1)
  ShowMessage("\\n<Guard>嫁とセックスすると、やたらに疲れるんですよね……")
  ShowMessage("なぜでしょう、まだそんな年齢でもないはずなのに。")
  355("actor_label_jump")
  EndEventProcessing()
  DefineLabel("83")
  ShowMessageFace("hapy_a_fc1",0,0,2,2)
  ShowMessage("\\n<Reina>おつとめ、がんばってね～♪")
  EndEventProcessing()
  DefineLabel("285")
  ShowMessageFace("renccubus_fc1",1,0,2,3)
  ShowMessage("\\n<ニーナ>搾られてますね……")
  EndEventProcessing()
  0()



EVENT   94
 PAGE   1
  // condition: variable 1069 >= 3
  ShowMessageFace("",0,0,2,1)
  ShowMessage("\\n<Thug>あんた、すごく強いんだってな。")
  ShowMessage("そのまま魔王城に乗り込んで、魔王を倒してくれよ！")
  355("actor_label_jump")
  EndEventProcessing()
  DefineLabel("45")
  ShowMessageFace("alicetromeria_fc1",4,0,2,2)
  ShowMessage("\\n<Alicetroemeria>ふふっ、それも面白いですわね……")
  EndEventProcessing()
  0()



EVENT   95
 PAGE   1
  // condition: variable 1069 >= 3
  ShowMessageFace("",0,0,2,1)
  ShowMessage("\\n<旅の戦士>この村は、ずいぶん平和だったのだな……")
  ShowMessage("今回の一件まで、魔物の攻撃が一度もなかったなんて。")
  0()



EVENT   96
 PAGE   1
  // condition: variable 1069 >= 3
  ShowMessageFace("",0,0,2,1)
  ShowMessage("\\n<Officer>ありがとうございました！")
  ShowMessage("まさか、ここまでお強いとは！")
  0()



EVENT   97
 PAGE   1
  // condition: variable 1069 >= 3
  ShowMessageFace("",0,0,2,1)
  ShowMessage("\\n<村娘>勇者ハインリヒ様は、黒のアリスを打倒して下さるでしょうか。")
  ShowMessage("それとも、もしかしてあなたが……")
  ShowMessageFace("",0,0,2,2)
  ShowMessage("\\n<村娘>いっそお二人が、力を合わせればいかがです？")
  ShowMessage("二人の勇者が協力すれば、魔王をも打ち倒せるはず。")
  0()



EVENT   98
 PAGE   1
  // condition: variable 1069 >= 3
  ShowMessageFace("",0,0,2,1)
  ShowMessage("\\n<Middle-age Man>各地の町や村は、魔王軍の熾烈な攻撃を受けている。")
  ShowMessage("のどかだったこの村も、とうとう平穏が破られてしまった……")
  ShowMessageFace("",0,0,2,2)
  ShowMessage("\\n<Middle-age Man>ああ、悪逆非道の魔王を討ち倒す勇者はいないのか！")
  ShowMessage("勇者ハインリヒならば、もしかしたら……")
  355("actor_label_jump")
  EndEventProcessing()
  DefineLabel("538")
  ShowMessageFace("heinrich_fc1",7,0,2,3)
  ShowMessage("\\n<Heinrich>人々の期待、裏切るわけにはいかないね……")
  EndEventProcessing()
  0()



EVENT   99
 PAGE   1
  // condition: variable 1069 >= 3
  ShowMessageFace("",0,0,2,1)
  ShowMessage("\\n<売り子>この村の特産品……たっぷり味わっていってね♪")
  Shop(0,319,0,0,false)
  605(0,320,0,0)
  605(0,342,0,0)
  0()



EVENT   100
 PAGE   1
  If(1,1069,0,2,2)
   ShowMessageFace("",0,0,2,1)
   ShowMessage("\\n<村娘>妖魔の襲撃！？　そ、そんな……！")
   EndEventProcessing()
   0()
  EndIf()
  If(1,1069,0,3,1)
   ShowMessageFace("",0,0,2,2)
   ShowMessage("\\n<村娘>黒のアリスの暴虐ぶり……")
   ShowMessage("妖魔の間にも、反発する者は多いとか。")
   355("actor_label_jump")
   EndEventProcessing()
   DefineLabel("45")
   ShowMessageFace("alicetromeria_fc1",4,0,2,3)
   ShowMessage("\\n<Alicetroemeria>うふふっ……")
   EndEventProcessing()
   0()
  EndIf()
  0()



EVENT   101
 PAGE   1
  If(1,1069,0,2,2)
   ShowMessageFace("",0,0,2,1)
   ShowMessage("\\n<村の男>北区に妖魔が！？")
   ShowMessage("ここまで来たりしないだろうな……")
   EndEventProcessing()
   0()
  EndIf()
  If(1,1069,0,3,1)
   ShowMessageFace("",0,0,2,2)
   ShowMessage("\\n<村の男>まったく、とんだ騒ぎだったな……")
   ShowMessage("この村の平和も、ついに破られたか。")
   EndEventProcessing()
   0()
  EndIf()
  0()



EVENT   102
 PAGE   1
  ShowMessageFace("",0,0,2,1)
  ShowMessage("\\n<Youth>勇者ハインリヒが、近くまで来てるらしいじゃないか！")
  ShowMessage("北区の住民には気の毒だけど、彼が来るまで待てば……")
  355("actor_label_jump")
  EndEventProcessing()
  DefineLabel("201")
  ShowMessageFace("ashel_fc1",0,0,2,2)
  ShowMessage("\\n<Ashel>そんな余裕はなさそうだね……行くよっ！")
  EndEventProcessing()
  DefineLabel("204")
  ShowMessageFace("umiusi_k_fc1",0,0,2,3)
  ShowMessage("\\n<Stacy>待っていられません！")
  ShowMessage("すぐに救援に向かいましょう！")
  EndEventProcessing()
  0()
 PAGE   2
  // condition: variable 1069 >= 3
  ShowMessageFace("",0,0,2,1)
  ShowMessage("\\n<Youth>勇者ハインリヒが、宿に泊まってるらしいぜ。")
  ShowMessage("サインもらいに行こうかな……？")
  355("actor_label_jump")
  EndEventProcessing()
  DefineLabel("45")
  ShowMessageFace("alicetromeria_fc1",0,0,2,2)
  ShowMessage("\\n<Alicetroemeria>ハインリヒ様ったら、大人気ですわね……")
  EndEventProcessing()
  DefineLabel("538")
  ShowMessageFace("heinrich_fc1",7,0,2,3)
  ShowMessage("\\n<Heinrich>サイン攻めは苦手でね……")
  ShowMessage("少し隠れていようか。")
  EndEventProcessing()
  0()



EVENT   103
 PAGE   1
  If(1,1069,0,2,2)
   ShowMessageFace("",0,0,2,1)
   ShowMessage("\\n<村娘>えっ、妖魔が村に！？")
   ShowMessage("いったいどういう事なんでしょう……")
   EndEventProcessing()
   0()
  EndIf()
  If(1,1069,0,3,1)
   ShowMessageFace("",0,0,2,2)
   ShowMessage("\\n<村娘>黒のアリスは、約定さえ無視するのですね。")
   ShowMessage("この村は中立であったはずなのに……")
   355("actor_label_jump")
   EndEventProcessing()
   DefineLabel("45")
   ShowMessageFace("alicetromeria_fc1",4,0,2,3)
   ShowMessage("\\n<Alicetroemeria>不測の事態は、どこにでもありますわ。")
   ShowMessage("まして、いたずらっ子のやる事ですから……")
   EndEventProcessing()
   DefineLabel("341")
   ShowMessageFace("lilith_fc1",0,0,2,4)
   ShowMessage("\\n<リリス＆リリム>私達の悪戯心で、黒のアリス様の名まで貶めてしまったのは不本意。")
   ShowMessage("今度は、ボランティアにでも来ましょうか……")
   EndEventProcessing()
   0()
  EndIf()
  0()



EVENT   104
 PAGE   1
  // condition: variable 1069 >= 3
  ShowMessageFace("",0,0,2,1)
  ShowMessage("\\n<若い娘>あっちの方は、どれだけ強いのかしら？")
  ShowMessageFace("",0,0,2,2)
  ShowMessage("\\n<旅の戦士>こんな、知り合ったばかりなのに……あぁぁぁ――っ！！")
  ShowMessageFace("",0,0,2,3)
  ShowMessage("\\n<若い娘>ふふ……大した事ないわね。")
  0()



EVENT   105
 PAGE   1
  // condition: variable 1069 >= 3
  ShowMessageFace("",0,0,2,1)
  ShowMessage("\\n<若い娘>あっちの方は、どれだけ強いのかしら？")
  ShowMessageFace("",0,0,2,2)
  ShowMessage("\\n<旅の戦士>こんな、知り合ったばかりなのに……あぁぁぁ――っ！！")
  ShowMessageFace("",0,0,2,3)
  ShowMessage("\\n<若い娘>ふふ……大した事ないわね。")
  0()



EVENT   106
 PAGE   1
  If(1,1069,0,2,2)
   ShowMessageFace("",0,0,2,1)
   ShowMessage("\\n<Middle-age Man>南区にまでやって来ないだろうな……")
   ShowMessage("しばらくここで隠れていよう。")
   EndEventProcessing()
   0()
  EndIf()
  If(1,1069,0,3,1)
   ShowMessageFace("",0,0,2,2)
   ShowMessage("\\n<Middle-age Man>またやって来ないだろうな……")
   ShowMessage("しばらくここで隠れていよう。")
   355("actor_label_jump")
   EndEventProcessing()
   DefineLabel("88")
   ShowMessageFace("jack_fc1",1,0,2,3)
   ShowMessage("\\n<Pumpkin>あたしも、かくれんぼする～♪")
   EndEventProcessing()
   0()
  EndIf()
  0()



EVENT   107
 PAGE   1
  If(1,1069,0,2,2)
   ShowMessageFace("",0,0,2,1)
   ShowMessage("\\n<Man>おいおい、この村に魔物が攻めてくるなんて初めてだぜ！")
   EndEventProcessing()
   0()
  EndIf()
  If(1,1069,0,3,1)
   ShowMessageFace("",0,0,2,2)
   ShowMessage("\\n<Man>勇者ハインリヒが、魔王を倒してくれるさ。")
   ShowMessage("きっとそうさ、世界は平和になるはずさ……")
   EndEventProcessing()
   0()
  EndIf()
  0()



EVENT   108
 PAGE   1
  // condition: variable 1069 >= 3
  ShowMessageFace("",0,0,2,1)
  ShowMessage("\\n<村の男>数多くの勇者が魔王に挑み、そして誰も帰ってこなかった……")
  ShowMessage("いったい世の中は、どうなってしまうのだろうな。")
  0()



EVENT   109
 PAGE   1
  If(1,1069,0,2,2)
   ShowMessageFace("",0,0,2,1)
   ShowMessage("\\n<老人>なんと、妖魔の襲撃とは……！")
   ShowMessage("あわわ、腰が抜けてしまったわい……")
   EndEventProcessing()
   0()
  EndIf()
  If(1,1069,0,3,1)
   ShowMessageFace("",0,0,2,2)
   ShowMessage("\\n<老人>妖魔の襲撃とは、驚いたのう。")
   ShowMessage("まだ、腰が抜けておるわい……")
   355("actor_label_jump")
   EndEventProcessing()
   DefineLabel("166")
   ShowMessageFace("narcubus_fc1",0,0,2,3)
   ShowMessage("\\n<ナビス>大丈夫ですか～？")
   EndEventProcessing()
   DefineLabel("249")
   ShowMessageFace("ant_fc1",0,0,2,4)
   ShowMessage("\\n<アント>立テル……？")
   EndEventProcessing()
   0()
  EndIf()
  0()



EVENT   110
 PAGE   1
  If(1,1069,0,2,2)
   ShowMessageFace("",0,0,2,1)
   ShowMessage("\\n<村娘>大変な事になりましたね……")
   ShowMessage("この村の平和が、破られてしまうなんて……")
   EndEventProcessing()
   0()
  EndIf()
  If(1,1069,0,3,1)
   ShowMessageFace("",0,0,2,2)
   ShowMessage("\\n<村娘>あらためて、今は戦乱の時代である事を思い知りました。")
   ShowMessage("今回は犠牲者が一人も出ないで幸いです。")
   EndEventProcessing()
   0()
  EndIf()
  0()



EVENT   111
 PAGE   1
  ShowMessageFace("",0,0,2,1)
  ShowMessage("\\n<神父>この村では、なぜかイリアス様の教えが根付きません……")
  ShowMessage("それはともかく、何のご用ですかな？")
  ShowChoices(strings("お祈りをする","転職・パーティ編成","用はない"),3)
  IfPlayerPicksChoice(0,null)
   ChangeVariable(1002,1002,0,0,37)
   ShowMessageFace("",0,0,2,2)
   ShowMessage("\\n<神父>それでは、イリアス様に祈りましょう。")
   ShowMessage("……ああ、この場に導きの縁を感じます。")
   ShowMessageFace("",0,0,2,3)
   ShowMessage("\\n<神父>もし旅先で何かあった場合、この場に導かれるでしょう。")
   ShowMessage("イリアス様のご加護があらん事を……")
   0()
  IfPlayerPicksChoice(1,null)
   RunCommonEvent(113)
   EndEventProcessing()
   0()
  IfPlayerPicksChoice(2,null)
   ShowMessageFace("",0,0,2,4)
   ShowMessage("\\n<神父>イリアス様のご加護があらん事を……")
   0()
  404()
  0()



EVENT   112
 PAGE   1
  250(bytes(0x04,0x08,0x6f,0x3a,0x0c,0x52,0x50,0x47,0x3a,0x3a,0x53,0x45,0x08,0x3a,0x0a,0x40,0x6e,0x61,0x6d,0x65,0x49,0x22,0x0a,0x49,0x74,0x65,0x6d,0x31,0x06,0x3a,0x06,0x45,0x54,0x3a,0x0b,0x40,0x70,0x69,0x74,0x63,0x68,0x69,0x69,0x3a,0x0c,0x40,0x76,0x6f,0x6c,0x75,0x6d,0x65,0x69,0x55))
  ChangeSelfSwitch("A",0)
  ChangeInventory_Item(65,0,0,1)
  0()
 PAGE   2
  // condition: self-switch A is ON
  0()



EVENT   113
 PAGE   1
  250(bytes(0x04,0x08,0x6f,0x3a,0x0c,0x52,0x50,0x47,0x3a,0x3a,0x53,0x45,0x08,0x3a,0x0a,0x40,0x6e,0x61,0x6d,0x65,0x49,0x22,0x0a,0x49,0x74,0x65,0x6d,0x31,0x06,0x3a,0x06,0x45,0x54,0x3a,0x0b,0x40,0x70,0x69,0x74,0x63,0x68,0x69,0x69,0x3a,0x0c,0x40,0x76,0x6f,0x6c,0x75,0x6d,0x65,0x69,0x55))
  ChangeSelfSwitch("A",0)
  ChangeInventory_Item(69,0,0,1)
  0()
 PAGE   2
  // condition: self-switch A is ON
  0()



EVENT   114
 PAGE   1
  250(bytes(0x04,0x08,0x6f,0x3a,0x0c,0x52,0x50,0x47,0x3a,0x3a,0x53,0x45,0x08,0x3a,0x0a,0x40,0x6e,0x61,0x6d,0x65,0x49,0x22,0x0a,0x49,0x74,0x65,0x6d,0x31,0x06,0x3a,0x06,0x45,0x54,0x3a,0x0b,0x40,0x70,0x69,0x74,0x63,0x68,0x69,0x69,0x3a,0x0c,0x40,0x76,0x6f,0x6c,0x75,0x6d,0x65,0x69,0x55))
  ChangeSelfSwitch("A",0)
  ChangeInventory_Item(28,0,0,1)
  0()
 PAGE   2
  // condition: self-switch A is ON
  0()



EVENT   115
 PAGE   1
  250(bytes(0x04,0x08,0x6f,0x3a,0x0c,0x52,0x50,0x47,0x3a,0x3a,0x53,0x45,0x08,0x3a,0x0a,0x40,0x6e,0x61,0x6d,0x65,0x49,0x22,0x0a,0x49,0x74,0x65,0x6d,0x31,0x06,0x3a,0x06,0x45,0x54,0x3a,0x0b,0x40,0x70,0x69,0x74,0x63,0x68,0x69,0x69,0x3a,0x0c,0x40,0x76,0x6f,0x6c,0x75,0x6d,0x65,0x69,0x55))
  ChangeSelfSwitch("A",0)
  ChangeInventory_Item(2,0,0,1)
  0()
 PAGE   2
  // condition: self-switch A is ON
  0()



EVENT   116
 PAGE   1
  ShowMessageFace("",0,0,2,1)
  ShowMessage("\\n<道具屋のおっさん>あんた達、勇者だろ？")
  ShowMessage("うちのアイテムで回復してやるから、どうか何とかしてくれ！")
  250(bytes(0x04,0x08,0x6f,0x3a,0x0c,0x52,0x50,0x47,0x3a,0x3a,0x53,0x45,0x08,0x3a,0x0a,0x40,0x6e,0x61,0x6d,0x65,0x49,0x22,0x0a,0x48,0x65,0x61,0x6c,0x37,0x06,0x3a,0x06,0x45,0x54,0x3a,0x0b,0x40,0x70,0x69,0x74,0x63,0x68,0x69,0x69,0x3a,0x0c,0x40,0x76,0x6f,0x6c,0x75,0x6d,0x65,0x69,0x55))
  224(bytes(0x04,0x08,0x75,0x3a,0x0a,0x43,0x6f,0x6c,0x6f,0x72,0x25,0x00,0x00,0x00,0x00,0x00,0xe0,0x6f,0x40,0x00,0x00,0x00,0x00,0x00,0xe0,0x6f,0x40,0x00,0x00,0x00,0x00,0x00,0xe0,0x6f,0x40,0x00,0x00,0x00,0x00,0x00,0xe0,0x6f,0x40),30,true)
  314(0,0)
  ShowMessageFace("",0,0,2,2)
  ShowMessage("The party's HP and MP have been fully restored!")
  0()
 PAGE   2
  // condition: variable 1069 >= 3
  0()



EVENT   117
 PAGE   1
  // condition: variable 1069 >= 1
  241(bytes(0x04,0x08,0x6f,0x3a,0x0d,0x52,0x50,0x47,0x3a,0x3a,0x42,0x47,0x4d,0x08,0x3a,0x0a,0x40,0x6e,0x61,0x6d,0x65,0x49,0x22,0x0a,0x6b,0x69,0x6b,0x69,0x31,0x06,0x3a,0x06,0x45,0x54,0x3a,0x0c,0x40,0x76,0x6f,0x6c,0x75,0x6d,0x65,0x69,0x69,0x3a,0x0b,0x40,0x70,0x69,0x74,0x63,0x68,0x69,0x69))
  TemporaryRemoveEvent()
  0()
 PAGE   2
  // condition: variable 1069 >= 3
  241(bytes(0x04,0x08,0x6f,0x3a,0x0d,0x52,0x50,0x47,0x3a,0x3a,0x42,0x47,0x4d,0x08,0x3a,0x0a,0x40,0x6e,0x61,0x6d,0x65,0x49,0x22,0x0a,0x6b,0x69,0x6b,0x69,0x31,0x06,0x3a,0x06,0x45,0x54,0x3a,0x0c,0x40,0x76,0x6f,0x6c,0x75,0x6d,0x65,0x69,0x69,0x3a,0x0b,0x40,0x70,0x69,0x74,0x63,0x68,0x69,0x69))
  0()
