// EVENT 0021
Name "Skill: Food Delivery"

ChangeVariable(11,11,0,2,1,73)
250(bytes(0x04,0x08,0x6f,0x3a,0x0c,0x52,0x50,0x47,0x3a,0x3a,0x53,0x45,0x08,0x3a,0x0a,0x40,0x6e,0x61,0x6d,0x65,0x49,0x22,0x0a,0x49,0x74,0x65,0x6d,0x31,0x06,0x3a,0x06,0x45,0x54,0x3a,0x0b,0x40,0x70,0x69,0x74,0x63,0x68,0x69,0x69,0x3a,0x0c,0x40,0x76,0x6f,0x6c,0x75,0x6d,0x65,0x69,0x55))
If(1,11,0,3,2)
 ChangeInventory_Item(340,0,0,2)
 ChangeInventory_Item(341,0,0,2)
 ChangeInventory_Item(343,0,0,2)
 ShowMessageFace("",0,0,2,1)
 ShowMessage("2 \\ii[340], 2 \\ii[341], and 2 \\ii[343] were delivered!")
 EndEventProcessing()
 0()
EndIf()
If(1,11,0,6,2)
 ChangeInventory_Item(335,0,0,2)
 ChangeInventory_Item(360,0,0,2)
 ShowMessageFace("",0,0,2,2)
 ShowMessage("2 \\ii[335] and 2 \\ii[360] were delivered!")
 EndEventProcessing()
 0()
EndIf()
If(1,11,0,9,2)
 ChangeInventory_Item(310,0,0,2)
 ChangeInventory_Item(316,0,0,2)
 ChangeInventory_Item(319,0,0,2)
 ShowMessageFace("",0,0,2,3)
 ShowMessage("2 \\ii[310], 2 \\ii[316], and 2 \\ii[319] were delivered!")
 EndEventProcessing()
 0()
EndIf()
If(1,11,0,12,2)
 ChangeInventory_Item(307,0,0,2)
 ChangeInventory_Item(309,0,0,2)
 ChangeInventory_Item(313,0,0,2)
 ShowMessageFace("",0,0,2,4)
 ShowMessage("2 \\ii[307], 2 \\ii[309], and 2 \\ii[313] were delivered!")
 EndEventProcessing()
 0()
EndIf()
If(1,11,0,15,2)
 ChangeInventory_Item(308,0,0,2)
 ChangeInventory_Item(312,0,0,2)
 ChangeInventory_Item(318,0,0,2)
 ShowMessageFace("",0,0,2,5)
 ShowMessage("2 \\ii[308], 2 \\ii[312], and 2 \\ii[318] were delivered!")
 EndEventProcessing()
 0()
EndIf()
If(1,11,0,18,2)
 ChangeInventory_Item(322,0,0,2)
 ChangeInventory_Item(329,0,0,2)
 ChangeInventory_Item(330,0,0,2)
 ShowMessageFace("",0,0,2,6)
 ShowMessage("2 \\ii[322], 2 \\ii[329], and 2 \\ii[330] were delivered!")
 EndEventProcessing()
 0()
EndIf()
If(1,11,0,21,2)
 ChangeInventory_Item(324,0,0,2)
 ChangeInventory_Item(325,0,0,2)
 ChangeInventory_Item(327,0,0,2)
 ShowMessageFace("",0,0,2,7)
 ShowMessage("2 \\ii[324], 2 \\ii[325], and 2 \\ii[327] were delivered!")
 EndEventProcessing()
 0()
EndIf()
If(1,11,0,24,2)
 ChangeInventory_Item(315,0,0,2)
 ChangeInventory_Item(331,0,0,2)
 ChangeInventory_Item(332,0,0,2)
 ShowMessageFace("",0,0,2,8)
 ShowMessage("2 \\ii[315], 2 \\ii[331], and 2 \\ii[332] were delivered!")
 EndEventProcessing()
 0()
EndIf()
If(1,11,0,27,2)
 ChangeInventory_Item(301,0,0,2)
 ChangeInventory_Item(302,0,0,2)
 ChangeInventory_Item(304,0,0,2)
 ShowMessageFace("",0,0,2,9)
 ShowMessage("2 \\ii[301], 2 \\ii[302], and 2 \\ii[304] were delivered!")
 EndEventProcessing()
 0()
EndIf()
If(1,11,0,30,2)
 ChangeInventory_Item(338,0,0,2)
 ChangeInventory_Item(339,0,0,2)
 ChangeInventory_Item(342,0,0,2)
 ShowMessageFace("",0,0,2,10)
 ShowMessage("2 \\ii[338], 2 \\ii[339], and 2 \\ii[342] were delivered!")
 EndEventProcessing()
 0()
EndIf()
If(1,11,0,33,2)
 ChangeInventory_Item(321,0,0,2)
 ChangeInventory_Item(334,0,0,2)
 ChangeInventory_Item(336,0,0,2)
 ShowMessageFace("",0,0,2,11)
 ShowMessage("2 \\ii[321], 2 \\ii[334], and 2 \\ii[336] were delivered!")
 EndEventProcessing()
 0()
EndIf()
If(1,11,0,36,2)
 ChangeInventory_Item(303,0,0,2)
 ChangeInventory_Item(305,0,0,2)
 ShowMessageFace("",0,0,2,12)
 ShowMessage("2 \\ii[303] and 2 \\ii[305] were delivered!")
 EndEventProcessing()
 0()
EndIf()
If(1,11,0,39,2)
 ChangeInventory_Item(432,0,0,2)
 ChangeInventory_Item(433,0,0,2)
 ShowMessageFace("",0,0,2,13)
 ShowMessage("2 \\ii[432] and 2 \\ii[433] were delivered!")
 EndEventProcessing()
 0()
EndIf()
If(1,11,0,41,2)
 ChangeInventory_Item(414,0,0,2)
 ChangeInventory_Item(423,0,0,2)
 ChangeInventory_Item(424,0,0,2)
 ShowMessageFace("",0,0,2,14)
 ShowMessage("2 \\ii[414], 2 \\ii[423], and 2 \\ii[424] were delivered!")
 EndEventProcessing()
 0()
EndIf()
If(1,11,0,43,2)
 ChangeInventory_Item(323,0,0,2)
 ChangeInventory_Item(326,0,0,2)
 ChangeInventory_Item(328,0,0,2)
 ShowMessageFace("",0,0,2,15)
 ShowMessage("2 \\ii[323], 2 \\ii[326], and 2 \\ii[328] were delivered!")
 EndEventProcessing()
 0()
EndIf()
If(1,11,0,45,2)
 ChangeInventory_Item(333,0,0,5)
 ShowMessageFace("",0,0,2,16)
 ShowMessage("5 \\ii[333] were delivered!")
 EndEventProcessing()
 0()
EndIf()
If(1,11,0,47,2)
 ChangeInventory_Item(346,0,0,1)
 ChangeInventory_Item(347,0,0,1)
 ChangeInventory_Item(349,0,0,1)
 ShowMessageFace("",0,0,2,17)
 ShowMessage("1 \\ii[346], 1 \\ii[347], and 1 \\ii[349] were delivered!")
 EndEventProcessing()
 0()
EndIf()
If(1,11,0,49,2)
 ChangeInventory_Item(353,0,0,1)
 ChangeInventory_Item(354,0,0,1)
 ShowMessageFace("",0,0,2,18)
 ShowMessage("1 \\ii[353] and 1 \\ii[354] were delivered!")
 EndEventProcessing()
 0()
EndIf()
If(1,11,0,51,2)
 ChangeInventory_Item(355,0,0,1)
 ChangeInventory_Item(356,0,0,1)
 ShowMessageFace("",0,0,2,19)
 ShowMessage("1 \\ii[355] and 1 \\ii[356] were delivered!")
 EndEventProcessing()
 0()
EndIf()
If(1,11,0,53,2)
 ChangeInventory_Item(358,0,0,1)
 ChangeInventory_Item(402,0,0,1)
 ShowMessageFace("",0,0,2,20)
 ShowMessage("1 \\ii[358] and 1 \\ii[402] were delivered!")
 EndEventProcessing()
 0()
EndIf()
If(1,11,0,55,2)
 ChangeInventory_Item(365,0,0,1)
 ChangeInventory_Item(366,0,0,1)
 ShowMessageFace("",0,0,2,21)
 ShowMessage("1 \\ii[365] and 1 \\ii[366] were delivered!")
 EndEventProcessing()
 0()
EndIf()
If(1,11,0,57,2)
 ChangeInventory_Item(375,0,0,1)
 ChangeInventory_Item(383,0,0,1)
 ChangeInventory_Item(389,0,0,1)
 ShowMessageFace("",0,0,2,22)
 ShowMessage("1 \\ii[375], 1 \\ii[383], and 1 \\ii[389] were delivered!")
 EndEventProcessing()
 0()
EndIf()
If(1,11,0,59,2)
 ChangeInventory_Item(405,0,0,1)
 ChangeInventory_Item(406,0,0,1)
 ChangeInventory_Item(407,0,0,1)
 ShowMessageFace("",0,0,2,23)
 ShowMessage("1 \\ii[405], 1 \\ii[406], and 1 \\ii[407] were delivered!")
 EndEventProcessing()
 0()
EndIf()
If(1,11,0,61,2)
 ChangeInventory_Item(408,0,0,1)
 ChangeInventory_Item(410,0,0,1)
 ChangeInventory_Item(411,0,0,1)
 ShowMessageFace("",0,0,2,24)
 ShowMessage("1 \\ii[408], 1 \\ii[410], and 1 \\ii[411] were delivered!")
 EndEventProcessing()
 0()
EndIf()
If(1,11,0,63,2)
 ChangeInventory_Item(400,0,0,1)
 ChangeInventory_Item(401,0,0,1)
 ShowMessageFace("",0,0,2,25)
 ShowMessage("1 \\ii[400] and 1 \\ii[401] were delivered!")
 EndEventProcessing()
 0()
EndIf()
If(1,11,0,65,2)
 ChangeInventory_Item(395,0,0,1)
 ChangeInventory_Item(403,0,0,1)
 ChangeInventory_Item(404,0,0,1)
 ShowMessageFace("",0,0,2,26)
 ShowMessage("1 \\ii[395], 1 \\ii[403], and 1 \\ii[404] were delivered!")
 EndEventProcessing()
 0()
EndIf()
If(1,11,0,66,0)
 ChangeInventory_Item(369,0,0,1)
 ShowMessageFace("",0,0,2,27)
 ShowMessage("1 \\ii[369] was delivered!")
 EndEventProcessing()
 0()
EndIf()
If(1,11,0,67,0)
 ChangeInventory_Item(377,0,0,1)
 ShowMessageFace("",0,0,2,28)
 ShowMessage("1 \\ii[377] was delivered!")
 EndEventProcessing()
 0()
EndIf()
If(1,11,0,68,0)
 ChangeInventory_Item(378,0,0,1)
 ShowMessageFace("",0,0,2,29)
 ShowMessage("1 \\ii[378] was delivered!")
 EndEventProcessing()
 0()
EndIf()
If(1,11,0,69,0)
 ChangeInventory_Item(414,0,0,1)
 ChangeInventory_Item(415,0,0,1)
 ChangeInventory_Item(416,0,0,1)
 ShowMessageFace("",0,0,2,30)
 ShowMessage("1 \\ii[414], 1 \\ii[415], and 1 \\ii[416] were delivered!")
 EndEventProcessing()
 0()
EndIf()
If(1,11,0,70,0)
 ChangeInventory_Item(417,0,0,1)
 ChangeInventory_Item(418,0,0,1)
 ChangeInventory_Item(419,0,0,1)
 ShowMessageFace("",0,0,2,31)
 ShowMessage("1 \\ii[417], 1 \\ii[418], and 1 \\ii[419] were delivered!")
 EndEventProcessing()
 0()
EndIf()
If(1,11,0,71,0)
 ChangeInventory_Item(420,0,0,1)
 ShowMessageFace("",0,0,2,32)
 ShowMessage("1 \\ii[420] was delivered!")
 EndEventProcessing()
 0()
EndIf()
If(1,11,0,72,0)
 ChangeInventory_Item(429,0,0,1)
 ChangeInventory_Item(430,0,0,1)
 ChangeInventory_Item(431,0,0,1)
 ShowMessageFace("",0,0,2,33)
 ShowMessage("1 \\ii[429], 1 \\ii[430], and 1 \\ii[431] were delivered!")
 EndEventProcessing()
 0()
EndIf()
If(1,11,0,73,0)
 ChangeInventory_Item(437,0,0,1)
 ChangeInventory_Item(438,0,0,1)
 ChangeInventory_Item(439,0,0,1)
 ShowMessageFace("",0,0,2,34)
 ShowMessage("1 \\ii[437], 1 \\ii[438], and 1 \\ii[439] were delivered!")
 EndEventProcessing()
 0()
EndIf()
0()
